#8 - Treasure Junk - 10 masted junk (1400)
type = heavy_ship

hull_size = 40 #tonnage 800 tons
base_cannons = 24 #24 bronze cannons
sail_speed = 5 #4.8 knots on average

#sailors = 200

sprite_level = 1

trigger = { 
	culture_group = chinese_group
	NOT = { technology_group = western }
	NOT = { dip_tech = 13 } #50 years (expeditions were 1405-1433)
	NOT = { has_country_flag = raised_special_units }
	}


