#estate_church =
#{
#	icon = 1
#
#	color = { 200 150 0 }
#
#	# Is estate kept in control of province on conquest?
#	keep_on_conquest = yes
#
#	# Estate will always be removed when conquered by a different religion than previous owner
#	always_remove_on_religious_conquest = yes
#
#	# They want to control at least this % of the country's non-overseas development, if # of home provinecs is above set amount
#	min_territory = 0
#	min_provinces_to_want_territory = 0
##	wanted_territory_modifier = {
##		desc = EST_VAL_HINDU_CLERGY
##		trigger = {
##			religion = hinduism
##		}
##		value = -5
##	}
##	wanted_territory_modifier = {
##		desc = EST_VAL_PAPAL_LANDS
##		trigger = {
##			tag = PAP
##		}
##		value = -10
##	}
##	wanted_territory_modifier = {
##		desc = EST_VAL_CATHOLIC
##		trigger = {
##			religion = catholic
##			NOT = { tag = PAP }
##		}
##		value = 5
##	}
##	wanted_territory_modifier = {
##		desc = EST_VAL_THEOCRACY
##		trigger = {
##			government = theocracy
##			NOT = { tag = PAP }
##		}
##		value = 5
##	}
#
#	# If true, country will get estate
#	trigger = {
#		estate_church_trigger = yes
#	}
#
#	# If true, province can be granted to estate
#	province_trigger = {
#		always = no
#	}
#
#	# Min autonomy in estate provinces
#	min_autonomy = 0
#
#	# Estate cancels out the following multiplicative local autonomy effects:
#
#	# These scale with loyalty & power
##	country_modifier_happy = {
##		global_tax_modifier = 0.15
##		papal_influence = 0.75
##		devotion = 0.5
##		church_power_modifier = 0.5
##		monthly_fervor_increase = 1
##		stability_cost_modifier = -0.1
##	}
##	country_modifier_neutral = {
##		stability_cost_modifier = -0.1
##	}
##	country_modifier_angry = {
##		global_tax_modifier = -0.2
##		papal_influence = -1
##		devotion = -0.5
##		church_power_modifier = -0.25
##		monthly_fervor_increase = -1
##		stability_cost_modifier = 0.1
##	}
#
#	# These do not scale, but only applied in provinces owned by the estate
##	province_modifier_happy = {
##		local_missionary_strength = 0.02
##		local_unrest = -2
##		local_manpower_modifier = -0.1
##	}
##	province_modifier_neutral = {
##		local_unrest = -2
##		local_manpower_modifier = -0.1
##	}
##	province_modifier_angry = {
##		local_unrest = 5
##		local_manpower_modifier = -0.1
##	}
#
#	# Influence modifiers
#	base_influence = 0
#	influence_modifier = {
#		desc = estate_cleric_influence_5
#		trigger = {
#			has_country_flag = estate_cleric_influence_5
#		}
#		influence = 5
#	}
#	influence_modifier = {
#		desc = estate_cleric_influence_10
#		trigger = {
#			has_country_flag = estate_cleric_influence_10
#		}
#		influence = 10
#	}
#	influence_modifier = {
#		desc = estate_cleric_influence_20
#		trigger = {
#			has_country_flag = estate_cleric_influence_20
#		}
#		influence = 20
#	}
#	influence_modifier = {
#		desc = estate_cleric_influence_30
#		trigger = {
#			has_country_flag = estate_cleric_influence_30
#		}
#		influence = 30
#	}
#	influence_modifier = {
#		desc = estate_cleric_influence_40
#		trigger = {
#			has_country_flag = estate_cleric_influence_40
#		}
#		influence = 40
#	}
#	influence_modifier = {
#		desc = estate_cleric_influence_50
#		trigger = {
#			has_country_flag = estate_cleric_influence_50
#		}
#		influence = 50
#	}
#	influence_modifier = {
#		desc = estate_cleric_influence_60
#		trigger = {
#			has_country_flag = estate_cleric_influence_60
#		}
#		influence = 60
#	}
#	influence_modifier = {
#		desc = estate_cleric_influence_70
#		trigger = {
#			has_country_flag = estate_cleric_influence_70
#		}
#		influence = 70
#	}
#	influence_modifier = {
#		desc = estate_cleric_influence_80
#		trigger = {
#			has_country_flag = estate_cleric_influence_80
#		}
#		influence = 80
#	}
#	influence_modifier = {
#		desc = estate_cleric_influence_90
#		trigger = {
#			has_country_flag = estate_cleric_influence_90
#		}
#		influence = 90
#	}
#
#	# Loyalty modifiers
#	loyalty_modifier = {
#		desc = EST_VAL_PIOUS
#		trigger = {
#			piety = 0.2
#			NOT = { piety = 0.6 }
#		}
#		loyalty = 5
#	}
#	loyalty_modifier = {
#		desc = EST_VAL_VERY_PIOUS
#		trigger = {
#			piety = 0.6
#		}
#		loyalty = 10
#	}
#	loyalty_modifier = {
#		desc = EST_VAL_NOT_PIOUS
#		trigger = {
#			NOT = { piety = -0.2 }
#			piety = -0.6
#		}
#		loyalty = -5
#	}
#	loyalty_modifier = {
#		desc = EST_VAL_VERY_UNPIOUS
#		trigger = {
#			NOT = { piety = -0.6 }
#		}
#		loyalty = -10
#	}
#	loyalty_modifier = {
#		desc = EST_VAL_PROTESTANT
#		trigger = {
#			religion = protestant
#		}
#		loyalty = 10
#	}
#	loyalty_modifier = {
#		desc = EST_VAL_PAPAL_CONTROLLER
#		trigger = {
#			is_papal_controller = yes
#		}
#		loyalty = 10
#	}
#	loyalty_modifier = {
#		desc = EST_VAL_STATUTE_IN_RESTRAINTS
#		trigger = {
#			has_country_modifier = the_statue_in_restraint_of_appeals
#		}
#		loyalty = 5
#	}
#	loyalty_modifier = {
#		desc = EST_VAL_SHEIKH_UL_ISLAM
#		trigger = {
#			has_country_modifier = the_sheikh_ul_islam
#		}
#		loyalty = 5
#	}
#	loyalty_modifier = {
#		desc = EST_VAL_OTHER_ESTATE_IN_POWER_LOY
#		trigger = {
#			OR = {
#				# has_disaster = estate_nobility_disaster
#				# has_disaster = estate_burghers_disaster
#			}
#		}
#		loyalty = -20
#	}
#	loyalty_modifier = {
#		desc = EST_VAL_FULL_THEOLOGY
#		trigger = {
#			full_idea_group = theology_ideas
#		}
#		loyalty = 10
#	}
#	loyalty_modifier = {
#		desc = EST_VAL_FULL_POPULAR_RELIGION
#		trigger = {
#			full_idea_group = popular_religion_ideas
#		}
#		loyalty = 10
#	}
#	loyalty_modifier = {
#		desc = EST_VAL_FULL_SCHOLASTICISM
#		trigger = {
#			full_idea_group = scholasticism_ideas
#		}
#		loyalty = 10
#	}
#	loyalty_modifier = {
#		desc = EST_VAL_FULL_ASCETICISM
#		trigger = {
#			full_idea_group = asceticism_ideas
#		}
#		loyalty = 10
#	}
#	loyalty_modifier = {
#		desc = EST_VAL_FULL_CEREMONY
#		trigger = {
#			full_idea_group = ceremony_ideas
#		}
#		loyalty = 10
#	}
#
#	custom_name = {
#		desc = estate_monasteries
#		trigger = {
#			OR = {
#				religion = buddhism #Theravada
#				religion = mahayana
#				religion = vajrayana
#			}
#		}
#	}
#	custom_name = {
#		desc = estate_brahmins
#		trigger = {
#			religion = hinduism
#		}
#	}
#	custom_name = {
#		desc = estate_ulema
#		trigger = {
#			religion_group = muslim
#		}
#	}
#	custom_name = {
#		desc = estate_tlamacazqueh
#		trigger = {
#			religion = nahuatl
#		}
#	}
#	custom_name = {
#		desc = estate_clero
#		trigger = {
#			OR = {
#				culture_group = iberian
#				culture_group = portuguese
#			}
#		}
#	}
#	custom_name = {
#		desc = estate_clergat
#		trigger = {
#			culture_group = catalan_group
#		}
#	}
#	custom_name = {
#		desc = estate_klero
#		trigger = {
#			culture_group = basque_group
#		}
#	}
#	# For province assignment
#	ai_grant_province = {
#		factor = 1
#		modifier = {
#			factor = 10
#			has_owner_religion = no
#			NOT = { tolerance_to_this = 1 }
#		}
#		modifier = {
#			factor = 0.1
#			has_estate = estate_cossacks
#			has_terrain = steppe
#		}
#		modifier = {
#			factor = 0.75
#			has_owner_culture = yes
#		}
#		modifier = {
#			factor = 1.20
#			has_province_modifier = catholic_archbishopric
#		}
#		modifier = {
#			factor = 1.20
#			has_province_modifier = catholic_prelate
#		}
#		modifier = {
#			factor = 0.75
#			NOT = { has_building = temple }
#		}
#	}
#
#	# Does the AI want to give any extra territory beyond the minimum?
#	ai_territory_modifier = {
#		trigger = {
#			OR = {
#			has_idea_group = asceticism_ideas
#			has_idea_group = ceremony_ideas
#			has_idea_group = popular_religion_ideas
#			has_idea_group = scholasticism_ideas
#			has_idea_group = theology_ideas
#			}
#			num_of_cities = 10
#		}
#		value = 10
#	}
#
#	# Special interactions
#	interaction = {
#		name = "DEMAND_SUPPORT_CHURCH"
#		icon = 2
#
#		years_between_use = 20
#
#		potential = {
#			# NOT = { has_disaster = estate_nobility_disaster }
#			# NOT = { has_disaster = estate_burghers_disaster }
#		}
#
#		trigger = {
#			estate_loyalty = {
#				estate = estate_church
#				loyalty = 30
#			}
#			estate_influence = {
#				estate = estate_church
#				influence = 25
#			}
#		}
#
#		effect = {
#			if = {
#				limit = {
#					NOT = {
#						estate_influence = {
#							estate = estate_church
#							influence = 50
#						}
#					}
#				}
#				add_adm_power = 50
#			}
#			if = {
#				limit = {
#					estate_influence = {
#						estate = estate_church
#						influence = 50
#					}
#					NOT = {
#						estate_influence = {
#							estate = estate_church
#							influence = 75
#						}
#					}
#				}
#				add_adm_power = 100
#			}
#			if = {
#				limit = {
#					estate_influence = {
#						estate = estate_church
#						influence = 75
#					}
#					NOT = {
#						estate_influence = {
#							estate = estate_church
#							influence = 100
#						}
#					}
#				}
#				add_adm_power = 150
#			}
#			if = {
#				limit = {
#					estate_influence = {
#						estate = estate_church
#						influence = 100
#					}
#				}
#				add_adm_power = 200
#			}
#			add_estate_loyalty = {
#				estate = estate_church
#				loyalty = -20
#			}
#		}
#
#		ai_will_do = {
#			factor = 0
#		}
#	}
#	interaction = {
#		name = "MAKE_GENEROUS_DONATION"
#		icon = 7
#
#		years_between_use = 10
#
#		potential = {
#			# NOT = { has_disaster = estate_nobility_disaster }
#			# NOT = { has_disaster = estate_burghers_disaster }
#		}
#
#		trigger = {
#			always = yes
#		}
#
#		effect = {
#			add_years_of_income = -0.25
#			add_estate_loyalty = {
#				estate = estate_church
#				loyalty = 15
#			}
#		}
#
#		ai_will_do = {
#			factor = 1
#			modifier = {
#				factor = 0
#				NOT = { years_of_income = 0.5 }
#			}
#			modifier = {
#				factor = 0
#				estate_loyalty = {
#					estate = estate_church
#					loyalty = 40
#				}
#			}
#		}
#	}
#	interaction = {
#		name = "SEEK_SUPPORT_OF_CLERGY"
#		icon = 17
#
#		years_between_use = 20
#
#		trigger = {
#			estate_influence = {
#				estate = estate_church
#				influence = 30
#			}
#		}
#
#		effect = {
#			add_estate_influence_modifier = {
#				estate = estate_church
#				desc = EST_VAL_SOUGHT_SUPPORT
#				influence = 10
#				duration = 7300
#			}
#			add_estate_loyalty = {
#				estate = estate_church
#				loyalty = 15
#			}
#		}
#
#		ai_will_do = {
#			factor = 1
#			modifier = {
#				factor = 0
#				estate_loyalty = {
#					estate = estate_church
#					loyalty = 30
#				}
#			}
#			modifier = {
#				factor = 0
#				estate_influence = {
#					estate = estate_church
#					influence = 60
#				}
#			}
#		}
#	}
#	interaction = {
#		name = "RECRUIT_MINISTER"
#		icon = 10
#
#		potential = {
#			# NOT = { has_disaster = estate_nobility_disaster }
#			# NOT = { has_disaster = estate_burghers_disaster }
#		}
#
#		years_between_use = 30
#
#		trigger = {
#			estate_influence = {
#				estate = estate_church
#				influence = 40
#			}
#		}
#
#		effect = {
#			if = {
#				limit = {
#					monthly_income = 25
#				}
#				define_advisor = {
#					type = theologian
#					skill = 3
#					discount = yes
#				}
#			}
#			if = {
#				limit = { NOT = { monthly_income = 25 } }
#				define_advisor = {
#					type = theologian
#					skill = 2
#					discount = yes
#				}
#			}
#			add_estate_influence_modifier = {
#				estate = estate_church
#				desc = EST_VAL_CLERGY_MINISTER
#				influence = 15
#				duration = 10950
#			}
#		}
#
#		ai_will_do = {
#			factor = 0
#		}
#	}
#	interaction = {
#		name = "RECRUIT_INQUISITOR"
#		icon = 11
#
#		potential = {
#			# NOT = { has_disaster = estate_nobility_disaster }
#			# NOT = { has_disaster = estate_burghers_disaster }
#		}
#
#		years_between_use = 30
#
#		trigger = {
#			estate_influence = {
#				estate = estate_church
#				influence = 40
#			}
#		}
#
#		effect = {
#			if = {
#				limit = {
#					monthly_income = 25
#				}
#				define_advisor = {
#					type = inquisitor
#					skill = 3
#					discount = yes
#				}
#			}
#			if = {
#				limit = { NOT = { monthly_income = 25 } }
#				define_advisor = {
#					type = inquisitor
#					skill = 2
#					discount = yes
#				}
#			}
#			add_estate_influence_modifier = {
#				estate = estate_church
#				desc = EST_VAL_CLERGY_INQUISITOR
#				influence = 10
#				duration = 10950
#			}
#			if = {
#				limit = { has_estate = estate_dhimmi }
#				add_estate_loyalty = {
#					estate = estate_dhimmi
#					loyalty = -15
#				}
#			}
#		}
#
#		ai_will_do = {
#			factor = 0
#		}
#	}
#	interaction = {
#		name = "NEW_WORLD_MISSION"
#		icon = 15
#
#		years_between_use = 20
#
#		potential = {
#			has_idea_group = exploration_ideas
#			# NOT = { has_disaster = estate_nobility_disaster }
#			# NOT = { has_disaster = estate_burghers_disaster }
#		}
#
#		trigger = {
#			estate_influence = {
#				estate = estate_church
#				influence = 40
#			}
#		}
#
#		effect = {
#			add_country_modifier = {
#				name = "new_world_missions"
#				duration = 7300
#			}
#			add_estate_influence_modifier = {
#				estate = estate_church
#				desc = EST_VAL_NEW_WORLD_MISSION
#				influence = 15
#				duration = 7300
#			}
#		}
#
#		ai_will_do = {
#			factor = 0
#		}
#	}
#	interaction = {
#		name = "SEND_EMISSARY_TO_POPE"
#		icon = 14
#
#		years_between_use = 20
#
#		potential = {
#			religion = catholic
#			NOT = { tag = PAP }
#			# NOT = { has_disaster = estate_nobility_disaster }
#			# NOT = { has_disaster = estate_burghers_disaster }
#		}
#
#		trigger = {
#			estate_influence = {
#				estate = estate_church
#				influence = 40
#			}
#		}
#
#		effect = {
#
#			if = {
#				limit = {
#					NOT = {
#						estate_influence = {
#							estate = estate_church
#							influence = 50
#						}
#					}
#				}
#				add_papal_influence = 10
#			}
#			if = {
#				limit = {
#					estate_influence = {
#						estate = estate_church
#						influence = 50
#					}
#					NOT = {
#						estate_influence = {
#							estate = estate_church
#							influence = 60
#						}
#					}
#				}
#				add_papal_influence = 20
#			}
#			if = {
#				limit = {
#					estate_influence = {
#						estate = estate_church
#						influence = 60
#					}
#					NOT = {
#						estate_influence = {
#							estate = estate_church
#							influence = 70
#						}
#					}
#				}
#				add_papal_influence = 30
#			}
#			if = {
#				limit = {
#					estate_influence = {
#						estate = estate_church
#						influence = 70
#					}
#					NOT = {
#						estate_influence = {
#							estate = estate_church
#							influence = 80
#						}
#					}
#				}
#				add_papal_influence = 40
#			}
#			if = {
#				limit = {
#					estate_influence = {
#						estate = estate_church
#						influence = 80
#					}
#					NOT = {
#						estate_influence = {
#							estate = estate_church
#							influence = 90
#						}
#					}
#				}
#				add_papal_influence = 50
#			}
#			if = {
#				limit = {
#					estate_influence = {
#						estate = estate_church
#						influence = 90
#					}
#					NOT = {
#						estate_influence = {
#							estate = estate_church
#							influence = 100
#						}
#					}
#				}
#				add_papal_influence = 60
#			}
#			if = {
#				limit = {
#					estate_influence = {
#						estate = estate_church
#						influence = 100
#					}
#				}
#				add_papal_influence = 100
#			}
#			add_estate_influence_modifier = {
#				estate = estate_church
#				desc = EST_VAL_EMISSARY_TO_POPE
#				influence = 10
#				duration = 7300
#			}
#		}
#
#		ai_will_do = {
#			factor = 0
#		}
#	}
#}