#estate_magnates =
#{
#	icon = 2
#
#	color = { 50 0 50 }
#
#	# Is estate kept in control of province on conquest?
#	keep_on_conquest = no
#
#	# They want to control at least this % of the country's non-overseas development, if # of home provinecs is above set amount
#	min_territory = 0
#	min_provinces_to_want_territory = 999
#	wanted_territory_modifier = {
#		desc = EST_VAL_MAGNATES_DUCHY
#		trigger = {
#			government_rank = 4
#			NOT = { government_rank = 5 }
#		}
#		value = 5
#	}
#	wanted_territory_modifier = {
#		desc = EST_VAL_MAGNATES_KINGDOM
#		trigger = {
#			government_rank = 5
#			NOT = { government_rank = 6 }
#		}
#		value = 10
#	}
#	wanted_territory_modifier = {
#		desc = EST_VAL_MAGNATES_EMPIRE
#		trigger = {	
#			government_rank = 6
#		}
#		value = 15
#	}
#	wanted_territory_modifier = {
#		desc = EST_VAL_MAGNATES_NONELECTIVETERR
#		trigger = {
#			NOT = { government = elective_monarchy }
#		}
#		value = -10
#	}
#	wanted_territory_modifier = {
#		desc = EST_VAL_FEUDAL_MONARCHY
#		trigger = {
#			OR = {
#				government = feudal_monarchy
#				government = medieval_monarchy
#			}
#		}
#		value = 10
#	}
#	# If true, country will get estate
#	trigger = {
#		estate_magnates_trigger = yes
#	}
#
#	# If true, province can be granted to estate
#	province_trigger = {
#		magnate_estate_outside_trigger = yes
#		NOT = { has_terrain = steppe }
#	}
#
#	# Min autonomy in estate provinces
#	min_autonomy = 5
#
#	# Estate cancels out the following multiplicative local autonomy effects:
#
#	country_modifier_happy = {
#		global_unrest = -2
#		legitimacy = 0.33
#	}
#	country_modifier_neutral = {
#		stability_cost_modifier = 0.075
#	}
#	country_modifier_angry = {
#		global_tax_modifier = -0.15
#	}
#
#	# These do not scale, but only applied in provinces owned by the estate
#	province_modifier_happy = {
#		local_autonomy = 0.05
#	}
#	province_modifier_neutral = {
#		local_autonomy = 0.05
#	}
#	province_modifier_angry = {
#		local_unrest = 10
#		local_autonomy = 0.05
#	}
#
#	# Influence modifiers
#	base_influence = 0
#	influence_modifier = {
#		desc = EST_VAL_EASTERN_TECH
#		trigger = {
#			technology_group = eastern
#		}
#		influence = 5
#	}
#	influence_modifier = {
#		desc = EST_VAL_MAGNATES_NONELECTIVE
#		trigger = {
#			NOT = { government = elective_monarchy }
#		}
#		influence = -5
#	}
#
#	# Influence modifiers from Events:
#	influence_modifier = {
#		desc = EST_HUN_MAGNATES
#		trigger = {
#			has_ruler_modifier = hun_power_to_magnates
#		}
#		influence = 10
#	}
#	influence_modifier = {
#		desc = EST_MAGNATES_SUCCESSION
#		trigger = {
#			has_country_modifier = elective_succession
#		}
#		influence = 10
#	}
#	influence_modifier = {
#		desc = EST_VAL_OTHER_ESTATE_IN_POWER
#		trigger = {
#			OR = {
#				has_disaster = estate_church_disaster
#				has_disaster = estate_burghers_disaster
#				has_disaster = estate_nobility_disaster
#			}
#		}
#		influence = -40
#	}
#
#
#	# Loyalty modifiers
#	loyalty_modifier = {
#		desc = EST_VAL_OTHER_ESTATE_IN_POWER_LOY
#		trigger = {
#			OR = {
#				has_disaster = estate_church_disaster
#				has_disaster = estate_burghers_disaster
#				has_disaster = estate_nobility_disaster
#			}
#		}
#		loyalty = -20
#	}
#	loyalty_modifier = {
#		desc = EST_VAL_NOT_LEGITIMATE
#		trigger = {
#			government = elective_monarchy
#			NOT = { legitimacy = 75 }
#			legitimacy = 50
#		}
#		loyalty = -10
#	}
#	loyalty_modifier = {
#		desc = EST_VAL_ILLEGITIMATE
#		trigger = {
#			government = elective_monarchy
#			NOT = { legitimacy = 50 }
#		}
#		loyalty = -20
#	}
#	loyalty_modifier = {
#		desc = EST_VAL_NOT_LEGITIMATE
#		trigger = {
#			NOT = { government = elective_monarchy }
#			NOT = { legitimacy = 75 }
#			legitimacy = 50
#		}
#		loyalty = -10
#	}
#	loyalty_modifier = {
#		desc = EST_VAL_ILLEGITIMATE
#		trigger = {
#			NOT = { government = elective_monarchy }
#			NOT = { legitimacy = 50 }
#		}
#		loyalty = -5
#	}
#
#	#Alternative naming of estates
#	custom_name = {
#		desc = estate_magnateria
#		trigger = {
#			OR = {
#				primary_culture = polish
#				primary_culture = lithuanian
#			}
#		}
#	}
#	# Does the AI want to give any extra territory beyond the minimum?
#	ai_territory_modifier = {
#		trigger = {
#			has_idea_group = aristocracy_ideas
#			num_of_cities = 10
#		}
#		value = 5
#	}
#	ai_territory_modifier = {
#		trigger = {
#			has_idea_group = influence_ideas
#			num_of_cities = 10
#		}
#		value = 5
#	}
#
#	# For province assignment
#	ai_grant_province = {
#		factor = 1
#		modifier = {
#			factor = 2
#			NOT = { development = 10 }
#		}
#		modifier = {
#			factor = 0.75
#			has_owner_culture = yes
#		}
#	}
#
#	# Special interactions
#	interaction = {
#		name = "CALL_DIET"
#		icon = 1
#
#		years_between_use = 20
#
#		trigger = {
#			always = yes
#		}
#
#		effect = {
#			add_prestige = -5
#			add_estate_loyalty = {
#				estate = estate_magnates
#				loyalty = 15
#			}
#			add_estate_influence_modifier = {
#				estate = estate_magnates
#				desc = EST_VAL_DIET_HELD
#				influence = 10
#				duration = 7300
#			}
#		}
#
#		ai_will_do = {
#			factor = 1
#			modifier = {
#				factor = 0
#				estate_influence = {
#					estate = estate_magnates
#					influence = 60
#				}
#			}
#			modifier = {
#				factor = 0
#				estate_loyalty = {
#					estate = estate_magnates
#					loyalty = 30
#				}
#			}
#		}
#	}
#}