name="MEIOU and Taxes Bookmarks Module"
path="mod/MEIOUandTaxesBookmarks"
dependencies={
	"MEIOU and Taxes 2.0"
}
tags={
	"MEIOU and Taxes"
}
picture="MEIOUandTaxesBM.jpg"
supported_version="1.18.*.*"

