name="MEIOU and Taxes 2.00"
path="mod/MEIOUandTaxes1"
replace_path="common/bookmarks"
replace_path="common/buildings"
replace_path="common/colonial_regions"
replace_path="common/countries"
replace_path="common/country_tags"
replace_path="common/cultures"
replace_path="common/diplomatic_actions"
replace_path="common/estates"
replace_path="common/factions"
replace_path="common/governments"
replace_path="common/imperial_reforms"
replace_path="common/natives"
replace_path="common/prices"
replace_path="common/province_names"
replace_path="common/rebel_types"
replace_path="common/religions"
replace_path="common/revolt_triggers"
replace_path="common/state_edicts"
replace_path="common/triggered_modifiers"
replace_path="common/technologies"
replace_path="common/tradegoods"
replace_path="common/tradenodes"
replace_path="common/units"
replace_path="events"
replace_path="decisions"
replace_path="gfx/flags"
replace_path="gfx/interface/ideas"
replace_path="history/advisors"
replace_path="history/countries"
replace_path="history/diplomacy"
replace_path="history/provinces"
replace_path="history/wars"
replace_path="missions"
tags={
	"MEIOU and Taxes"
	"Balance"
	"Events"
	"Expansion"
	"Gameplay"
	"Graphics"
	"Historical"
	"Map"
	"Military"
	"Missions and Decisions"
	"National Ideas"
	"New Nations"
	"Religion"
	"Translation"
}
picture="MEIOUandTaxes1.jpg"
supported_version="1.21.*.*"

