janissary_decadence = {
	potential = {
		normal_or_historical_nations = yes
		OR = {
			tag = TUR
			has_country_modifier = tur_janissary_1
			has_country_modifier = tur_janissary_2
			has_country_modifier = tur_janissary_3
			has_country_modifier = tur_janissary_4
		}
	}


	can_start = {
		OR = {
			has_country_modifier = tur_janissary_1
			has_country_modifier = tur_janissary_2
			has_country_modifier = tur_janissary_3
			has_country_modifier = tur_janissary_4
		}
		NOT = { adm = 5 }
		NOT = { dip = 5 }
		NOT = { mil = 5 }
	}
	
	can_stop = {
		OR = {
			NOT = {
				OR = {
					has_country_modifier = tur_janissary_1
					has_country_modifier = tur_janissary_2
					has_country_modifier = tur_janissary_3
					has_country_modifier = tur_janissary_4
				}
			}
			adm = 5
			dip = 5
			mil = 5
		}	
	}

	
	
	progress = {
		modifier = {
			factor = 1
			num_of_loans = 50
		}
		modifier = {
			factor = 1
			is_great_power = no
		}		

		#modifier = {
		#	factor = 1
		#	has_institution = enlightenment # is_westernising = yes # pending discussion on better replacement
		#}
		modifier = {
			factor = 1
			has_ruler_modifier = janissaries_denied_reward
		}
		modifier = {
			factor = 2
			is_bankrupt = yes
		}
		modifier = {
			factor = 1
			NOT = { army_tradition = 70 }
		}
		modifier = {
			factor = 1
			has_country_modifier = janissary_landholders
		}
		modifier = {
			factor = 1
			has_country_modifier = janissaries_upset
		}

	}




	
	can_end = {
		NOT = {
			OR = {
				has_country_modifier = tur_janissary_1
				has_country_modifier = tur_janissary_2
				has_country_modifier = tur_janissary_3
				has_country_modifier = tur_janissary_4
			}
		}
	}
	



	modifier = {
		technology_cost = 0.25
		idea_cost = 0.25
		global_manpower_modifier = -0.25
	}

		
		
		
	
	on_start = janissary_decadence.1
	on_end = janissary_decadence.100
	
	on_monthly = {
		events = {
		}
		
		# about 1 event each 10 years.
		random_events = { 
			120 = 0
			5 = janissary_decadence.2
			5 = janissary_decadence.3
			5 = janissary_decadence.4
		}
	}
}

