#######################################
#########                   ###########
####				   			   ####
####       MEIOU and Taxes         ####
####				   			   ####
#########                   ###########
#######################################

#Table of Contents

# 1. Canals
	# Kiel
	# Panama
	# Suez
	
# 2. Buildings
	# Forbidden City
	# Hagia Sophia minarets
	# Kremlins
	