###########################################################
# Events for the Dhimmi Estate
#
# written by Henrik Lohmander
###########################################################

#Overzealous Qazi
#Loosely based on an incident in the Mughal Empire.
#country_event = {
#	id = dhimmi_estate_events.1
#	title = dhimmi_estate_events.1.t
#	desc = dhimmi_estate_events.1.d
#	picture = RELIGION_eventPicture
#	
#	trigger = {
#		has_dlc = "The Cossacks"
#		has_estate = estate_dhimmi
#		has_estate = estate_church
#		any_owned_province = {
#			NOT = { religion_group = muslim }
#		}
#		NOT = {
#			has_estate_influence_modifier = {
#				estate = estate_dhimmi
#				modifier = EST_VAL_OVERZEALOUS_QAZI_DHIMMI
#			}
#		}
#		NOT = {
#			has_estate_influence_modifier = {
#				estate = estate_dhimmi
#				modifier = EST_VAL_OVERZEALOUS_PROTECTED_DHIMMI
#			}
#		}
#		estate_influence = {
#			estate = estate_church
#			influence = 25
#		}
#		any_owned_province = {
#			has_estate = estate_dhimmi
#			NOT = { religion_group = owner }
#		}
#	}
#	
#	is_triggered_only = yes
#	
#	mean_time_to_happen = {
#		days = 1
#	}
#	
#	option = {
#		name = dhimmi_estate_events.1.a #Stand by the Qazi
#		ai_chance = {
#			factor = 50
#			modifier = {
#				factor = 1.5
#				NOT = {
#					estate_loyalty = {
#						estate = estate_church
#						loyalty = 40
#					}
#				}
#			}
#			modifier = {
#				factor = 1.2
#				estate_loyalty = {
#					estate = estate_church
#					loyalty = 50
#				}
#				NOT = {
#					estate_loyalty = {
#						estate = estate_church
#						loyalty = 60
#					}
#				}
#			}
#			modifier = {
#				factor = 0.2
#				NOT = {
#					estate_loyalty = {
#						estate = estate_dhimmi
#						loyalty = 40
#					}
#				}
#			}
#			modifier = {
#				factor = 0.2
#				estate_influence = {
#					estate = estate_church
#					influence = 60
#				}
#			}
#		}
#		add_country_modifier = {
#			name = "overzealous_qazi"
#			duration = 3650
#		}
#		add_estate_loyalty = {
#			estate = estate_church
#			loyalty = 10
#		}
#		add_estate_loyalty = {
#			estate = estate_dhimmi
#			loyalty = -10
#		}
#		add_estate_influence_modifier = {
#			estate = estate_dhimmi
#			desc = EST_VAL_OVERZEALOUS_QAZI_DHIMMI
#			influence = -10
#			duration = 5475
#		}
#		add_estate_influence_modifier = {
#			estate = estate_church
#			desc = EST_VAL_OVERZEALOUS_QAZI_ULEMA
#			influence = 10
#			duration = 5475
#		}
#	}
#	option = {
#		name = dhimmi_estate_events.1.b #Replace the Qazi and try to make amends to the Banias
#		ai_chance = {
#			factor = 50
#			modifier = {
#				factor = 1.5
#				NOT = {
#					estate_loyalty = {
#						estate = estate_dhimmi
#						loyalty = 40
#					}
#				}
#			}
#			modifier = {
#				factor = 1.2
#				estate_loyalty = {
#					estate = estate_dhimmi
#					loyalty = 50
#				}
#				NOT = {
#					estate_loyalty = {
#						estate = estate_dhimmi
#						loyalty = 60
#					}
#				}
#			}
#			modifier = {
#				factor = 0.2
#				NOT = {
#					estate_loyalty = {
#						estate = estate_church
#						loyalty = 40
#					}
#				}
#			}
#			modifier = {
#				factor = 0.2
#				estate_influence = {
#					estate = estate_dhimmi
#					influence = 60
#				}
#			}
#		}
#		add_years_of_income = -0.1
#		hidden_effect = {
#			random_owned_province = {
#				limit = { has_province_flag = overzealous_qazi }
#				clr_province_flag = overzealous_qazi
#			}
#		}
#		add_estate_loyalty = {
#			estate = estate_church
#			loyalty = -10
#		}
#		add_estate_loyalty = {
#			estate = estate_dhimmi
#			loyalty = 10
#		}
#		add_estate_influence_modifier = {
#			estate = estate_dhimmi
#			desc = EST_VAL_OVERZEALOUS_PROTECTED_DHIMMI
#			influence = 10
#			duration = 5475
#		}
#		add_estate_influence_modifier = {
#			estate = estate_church
#			desc = EST_VAL_OVERZEALOUS_PROTECTED_DHIMMI_ULEMA
#			influence = -10
#			duration = 5475
#		}
#	}
#}

#Demands to lessen Taxes on Heathens
#Demands due to high influence
#Mostly based on Mughal History and the demands to abolish the Jizya and Pilgrim Taxes.
#country_event = {
#	id = dhimmi_estate_events.2
#	title = dhimmi_estate_events.2.t
#	desc = dhimmi_estate_events.2.d
#	picture = RELIGION_eventPicture
#	
#	trigger = {
#		has_dlc = "The Cossacks"
#		has_estate = estate_dhimmi
#		estate_influence = {
#			estate = estate_dhimmi
#			influence = 70
#		}
#		any_owned_province = {
#			NOT = { religion_group = muslim }
#		}
#	}
#	
#	is_triggered_only = yes
#	
#	mean_time_to_happen = {
#		days = 1
#	}
#	
#	immediate = {
#		hidden_effect = {
#			random_owned_province = {
#				limit = {
#					NOT = { religion_group = ROOT }
#				}
#				set_province_flag = demanding_dhimmi
#			}
#			random_owned_province = {
#				limit = {
#					NOT = { religion_group = ROOT }
#					NOT = { has_province_flag = demanding_dhimmi }
#					owner = {
#						num_of_cities = 8
#					}
#				}
#				set_province_flag = demanding_dhimmi
#			}
#			random_owned_province = {
#				limit = {
#					NOT = { religion_group = ROOT }
#					NOT = { has_province_flag = demanding_dhimmi }
#					owner = {
#						num_of_cities = 15
#					}
#				}
#				set_province_flag = demanding_dhimmi
#			}
#			random_owned_province = {
#				limit = {
#					NOT = { religion_group = ROOT }
#					NOT = { has_province_flag = demanding_dhimmi }
#					owner = {
#						num_of_cities = 25
#					}
#				}
#				set_province_flag = demanding_dhimmi
#			}
#		}
#	}
#	
#	option = {
#		name = dhimmi_estate_events.2.a #Trample the Dissenters!
#		ai_chance = {
#			factor = 35
#			modifier = {
#				factor = 0.2
#				NOT = {
#					estate_loyalty = {
#						estate = estate_dhimmi
#						loyalty = 40
#					}
#				}
#			}
#		}
#		add_estate_loyalty = {
#			estate = estate_dhimmi
#			loyalty = -10
#		}
#		every_owned_province = {
#			limit = {
#				has_province_flag = demanding_dhimmi
#				NOT = { has_province_modifier = fanatics_organizing }
#			}
#			add_province_modifier = {
#				name = "fanatics_organizing"
#				duration = 1825
#			}
#			add_unrest = 5
#			clr_province_flag = demanding_dhimmi
#		}
#	}
#	option = {
#		name = dhimmi_estate_events.2.b #Revoke some of the offending Taxes!
#		ai_chance = {
#			factor = 50
#			modifier = {
#				factor = 1.2
#				NOT = {
#					estate_loyalty = {
#						estate = estate_dhimmi
#						loyalty = 40
#					}
#				}
#			}
#			modifier = {
#				factor = 1.2
#				estate_influence = {
#					estate = estate_church
#					influence = 60
#				}
#			}
#		}
#		add_estate_loyalty = {
#			estate = estate_dhimmi
#			loyalty = 10
#		}
#		add_estate_influence_modifier = {
#			estate = estate_church
#			desc = EST_VAL_DHIMMI_NOT_TAXED
#			influence = -10
#			duration = 5475
#		}
#		add_country_modifier = {
#			name = "heathen_taxes_abolished"
#			duration = 5475
#		}
#		add_years_of_income = -0.35
#	}
#}

#Advancement of the Dhimmi
#country_event = {
#	id = dhimmi_estate_events.3
#	title = dhimmi_estate_events.3.t
#	desc = dhimmi_estate_events.3.d
#	picture = ADVISOR_eventPicture
#	
#	is_triggered_only = yes
#	
#	trigger = {
#		has_dlc = "The Cossacks"
#		has_estate = estate_dhimmi
#		any_owned_province = {
#			NOT = { religion_group = muslim }
#		}
#		NOT = {
#			has_estate_influence_modifier = {
#				estate = estate_dhimmi
#				modifier = EST_VAL_DHIMMI_DECLINES
#			}
#		}
#		NOT = {
#			has_estate_influence_modifier = {
#				estate = estate_dhimmi
#				modifier = EST_VAL_DHIMMI_ADVANCES
#			}
#		}
#		NOT = {
#			has_estate_influence_modifier = {
#				estate = estate_dhimmi
#				modifier = EST_VAL_DHIMMI_ADVANCES_20
#			}
#		}
#	}
#
#	
#	immediate = {
#		hidden_effect = {
#			random_list = {
#				80 = { set_country_flag = growing_influence_dhimmi_10 }
#				20 = { set_country_flag = growing_influence_dhimmi_20 }
#			}
#		}
#	}
#	
#	mean_time_to_happen = {
#		days = 1
#	}
#	
#
#	option = {
#		name = dhimmi_estate_events.3.a #Ok
#		trigger_switch = {
#			on_trigger = has_country_flag
#			growing_influence_dhimmi_10 = {
#				add_estate_influence_modifier = {
#				estate = estate_dhimmi
#				desc = EST_VAL_DHIMMI_ADVANCES
#				influence = 10
#				duration = 5475
#				}
#				clr_country_flag = growing_influence_dhimmi_10
#			}
#			growing_influence_dhimmi_20 = {
#				add_estate_influence_modifier = {
#					estate = estate_dhimmi
#					desc = EST_VAL_DHIMMI_ADVANCES_20
#					influence = 20
#					duration = 5475
#				}
#				clr_country_flag = growing_influence_dhimmi_20
#			}
#		}
#	}
#}

#Dhimmi Declines
#country_event = {
#	id = dhimmi_estate_events.4
#	title = dhimmi_estate_events.4.t
#	desc = dhimmi_estate_events.4.d
#	picture = ADVISOR_eventPicture
#	
#	trigger = {
#		has_dlc = "The Cossacks"
#		has_estate = estate_dhimmi
#		any_owned_province = {
#			NOT = { religion_group = muslim }
#		}
#		estate_influence = {
#			estate = estate_dhimmi
#			influence = 15
#		}
#		NOT = {
#			has_estate_influence_modifier = {
#				estate = estate_dhimmi
#				modifier = EST_VAL_DHIMMI_DECLINES
#			}
#		}
#		NOT = {
#			has_estate_influence_modifier = {
#				estate = estate_dhimmi
#				modifier = EST_VAL_DHIMMI_ADVANCES
#			}
#		}
#		NOT = {
#			has_estate_influence_modifier = {
#				estate = estate_dhimmi
#				modifier = EST_VAL_DHIMMI_ADVANCES_20
#			}
#		}
#	}
#	
#	is_triggered_only = yes
#	
#	mean_time_to_happen = {
#		days = 1
#	}
#	
#	option = {
#		name = dhimmi_estate_events.4.a #Ok
#		add_estate_influence_modifier = {
#			estate = estate_dhimmi
#			desc = EST_VAL_DHIMMI_DECLINES
#			influence = -10
#			duration = 5475
#		}
#	}
#}

# $ESTATE_NOBLES$ vs $ESTATE_DHIMMI$
#country_event = {
#	id = dhimmi_estate_events.5
#	title = dhimmi_estate_events.5.t
#	desc = dhimmi_estate_events.5.d
#	picture = ADVISOR_eventPicture
#	
#	trigger = {
#		has_dlc = "The Cossacks"
#		has_estate = estate_dhimmi
#		has_estate = estate_nobles
#		has_estate = estate_church
#		any_owned_province = {
#			NOT = { religion_group = muslim }
#		}
#		NOT = {
#			has_estate_influence_modifier = {
#				estate = estate_dhimmi
#				modifier = EST_VAL_TEMPLE_DESTRUCTION
#			}
#		}
#		NOT = {
#			has_estate_influence_modifier = {
#				estate = estate_dhimmi
#				modifier = EST_VAL_DHIMMI_TEMPLES_PROTECTED
#			}
#		}
#		estate_influence = {
#			estate = estate_dhimmi
#			influence = 40
#		}
#		any_owned_province = {
#			has_estate = estate_dhimmi
#		}
#	}
#	
#	is_triggered_only = yes
#	
#	mean_time_to_happen = {
#		days = 1
#	}
#	
#	option = {
#		name = dhimmi_estate_events.5.a #We must listen to the $ESTATE_NOBLES$
#		ai_chance = {
#			factor = 50
#			modifier = {
#				factor = 0.2
#				NOT = {
#					estate_loyalty = {
#						estate = estate_dhimmi
#						loyalty = 45
#					}
#				}
#			}
#			modifier = {
#				factor = 1.2
#				NOT = {
#					estate_loyalty = {
#						estate = estate_nobles
#						loyalty = 30
#					}
#				}
#			}
#			modifier = {
#				factor = 1.2
#				NOT = {
#					estate_loyalty = {
#						estate = estate_church
#						loyalty = 30
#					}
#				}
#			}
#			modifier = {
#				factor = 1.2
#				estate_influence = {
#					estate = estate_dhimmi
#					influence = 60
#				}
#			}
#		}
#		random_owned_province = {
#			limit = { has_estate = estate_dhimmi }
#			remove_estate = estate_dhimmi
#			add_province_modifier = {
#				name = "repression_of_influential_dhimmi"
#				duration = 3650
#			}
#		}
#		add_estate_loyalty = {
#			estate = estate_dhimmi
#			loyalty = -15
#		}
#		add_estate_loyalty = {
#			estate = estate_nobles
#			loyalty = 10
#		}
#		add_estate_loyalty = {
#			estate = estate_church
#			loyalty = 10
#		}
#		add_estate_influence_modifier = {
#			estate = estate_dhimmi
#			desc = EST_VAL_TEMPLE_DESTRUCTION
#			influence = -15
#			duration = 5475
#		}
#	}
#	option = {
#		name = dhimmi_estate_events.5.b #Stand by the $ESTATE_DHIMMI$
#		ai_chance = {
#			factor = 50
#			modifier = {
#				factor = 1.2
#				NOT = {
#					estate_loyalty = {
#						estate = estate_dhimmi
#						loyalty = 40
#					}
#				}
#			}
#			modifier = {
#				factor = 0.5
#				NOT = {
#					estate_loyalty = {
#						estate = estate_nobles
#						loyalty = 40
#					}
#				}
#			}
#			modifier = {
#				factor = 0.5
#				NOT = {
#					estate_loyalty = {
#						estate = estate_church
#						loyalty = 40
#					}
#				}
#			}
#			modifier = {
#				factor = 0.5
#				estate_influence = {
#					estate = estate_dhimmi
#					influence = 60
#				}
#			}
#		}
#		add_estate_loyalty = {
#			estate = estate_dhimmi
#			loyalty = 10
#		}
#		add_estate_loyalty = {
#			estate = estate_nobles
#			loyalty = -10
#		}
#		add_estate_loyalty = {
#			estate = estate_church
#			loyalty = -10
#		}
#		add_estate_influence_modifier = {
#			estate = estate_dhimmi
#			desc = EST_VAL_DHIMMI_TEMPLES_PROTECTED
#			influence = 10
#			duration = 5475
#		}
#	}
#}

# Dhimmi Administrators
#country_event = {
#	id = dhimmi_estate_events.6
#	title = dhimmi_estate_events.6.t
#	desc = dhimmi_estate_events.6.d
#	picture = ADVISOR_eventPicture
#	
#	trigger = {
#		has_dlc = "The Cossacks"
#		has_estate = estate_dhimmi
#		any_owned_province = {
#			NOT = { religion_group = muslim }
#		}
#	}
#	
#	is_triggered_only = yes
#	
#	mean_time_to_happen = {
#		days = 1
#	}
#	
#	option = {
#		name = dhimmi_estate_events.6.a #Let's put these learned men to good use.
#		ai_chance = {
#			factor = 50
#			modifier = {
#				factor = 0.5
#				estate_influence = {
#					estate = estate_dhimmi
#					influence = 60
#				}
#			}
#		}
#		add_country_modifier = {
#			name = "dhimmi_administrators"
#			duration = 5475
#		}
#		add_estate_influence_modifier = {
#			estate = estate_dhimmi
#			desc = EST_VAL_DHIMMI_ADMINISTRATORS
#			influence = 10
#			duration = 5475
#		}
#	}
#	option = {
#		name = dhimmi_estate_events.6.b #We cannot risk their assimilative capabilities.
#		ai_chance = {
#			factor = 50
#			modifier = {
#				factor = 0.5
#				NOT = {
#					estate_loyalty = {
#						estate = estate_church
#						loyalty = 40
#					}
#				}
#			}
#			modifier = {
#				factor = 1.5
#				estate_influence = {
#					estate = estate_dhimmi
#					influence = 70
#				}
#			}
#		}
#		add_estate_loyalty = {
#			estate = estate_church
#			loyalty = 10
#		}
#		add_estate_influence_modifier = {
#			estate = estate_dhimmi
#			desc = EST_VAL_DHIMMI_NO_ADMINISTRATORS
#			influence = -10
#			duration = 5475
#		}
#	}
#}

# Disloyal Dhimmi
#country_event = {
#	id = dhimmi_estate_events.7
#	title = dhimmi_estate_events.7.t
#	desc = dhimmi_estate_events.7.d
#	picture = ADVISOR_eventPicture
#	
#	trigger = {
#		has_dlc = "The Cossacks"
#		has_estate = estate_dhimmi
#		any_owned_province = {
#			NOT = { religion_group = muslim }
#		}
#		NOT = {
#			has_estate_influence_modifier = {
#				estate = estate_dhimmi
#				modifier = EST_VAL_DHIMMI_CONCESSIONS
#			}
#		}
#		any_owned_province = {
#			has_estate = estate_dhimmi
#		}
#		NOT = {
#			estate_loyalty = {
#				estate = estate_dhimmi
#				loyalty = 30
#			}
#		}
#	}
#	
#	is_triggered_only = yes
#	
#	mean_time_to_happen = {
#		days = 1
#	}
#	
#	option = {
#		name = dhimmi_estate_events.7.a #Infidels cannot be trusted.
#		ai_chance = {
#			factor = 25
#			modifier = {
#				factor = 2.0
#				legitimacy = 95
#			}
#		}
#		add_legitimacy = -15
#		add_horde_unity = -15
#		add_republican_tradition = -7
#		add_devotion = -7
#		random_owned_province = {
#			limit = { has_estate = estate_dhimmi }
#			add_local_autonomy = 33
#		}
#	}
#	option = {
#		name = dhimmi_estate_events.7.b #Make concessions to alleviate the situation.
#		ai_chance = {
#			factor = 75
#			modifier = {
#				factor = 0.5
#				estate_influence = {
#					estate = estate_dhimmi
#					influence = 60
#				}
#			}
#		}
#		random_list = { 30 = {} 40 = { subtract_variable = { which = stability_points value = 50 } } 30 = { subtract_stability_1 = yes } }
#		
#		add_estate_loyalty = {
#			estate = estate_dhimmi
#			loyalty = 10
#		}
#		add_estate_loyalty = {
#			estate = estate_church
#			loyalty = -10
#		}
#		add_estate_influence_modifier = {
#			estate = estate_dhimmi
#			desc = EST_VAL_DHIMMI_CONCESSIONS
#			influence = 10
#			duration = 5475
#		}
#	}
#}

# Dhimmi Moneylenders
#country_event = {
#	id = dhimmi_estate_events.8
#	title = dhimmi_estate_events.8.t
#	desc = dhimmi_estate_events.8.d
#	picture = ADVISOR_eventPicture
#	
#	trigger = {
#		has_dlc = "The Cossacks"
#		has_estate = estate_dhimmi
#		any_owned_province = {
#			NOT = { religion_group = muslim }
#		}
#		OR = {
#			war_exhaustion = 4
#			num_of_loans = 2
#		}
#		NOT = {
#			has_estate_influence_modifier = {
#				estate = estate_dhimmi
#				modifier = EST_VAL_DHIMMI_INVESTMENTS
#			}
#		}
#	}
#	
#	is_triggered_only = yes
#	
#	mean_time_to_happen = {
#		days = 1
#	}
#	
#	option = {
#		name = dhimmi_estate_events.8.a #Convince the $ESTATE_DHIMMI$ to invest in economic recovery.
#		add_years_of_income = 0.25
#		ai_chance = {
#			factor = 50
#			modifier = {
#				factor = 0.5
#				estate_influence = {
#					estate = estate_dhimmi
#					influence = 60
#				}
#			}
#			modifier = {
#				factor = 0.5
#				NOT = {
#					estate_loyalty = {
#						estate = estate_church
#						loyalty = 40
#					}
#				}
#			}
#		}
#		add_estate_loyalty = {
#			estate = estate_church
#			loyalty = -10
#		}
#		add_estate_influence_modifier = {
#			estate = estate_dhimmi
#			desc = EST_VAL_DHIMMI_INVESTMENTS
#			influence = 15
#			duration = 9125 #25 years.
#		}
#	}
#	option = {
#		name = dhimmi_estate_events.8.b #We must not make ourselves dependent on infidels.
#		ai_chance = {
#			factor = 50
#			modifier = {
#				factor = 1.5
#				NOT = {
#					estate_loyalty = {
#						estate = estate_church
#						loyalty = 40
#					}
#				}
#			}
#		}
#		add_estate_loyalty = {
#			estate = estate_church
#			loyalty = 10
#		}
#	}
#}

# Local Dhimmi Revolt
#province_event = {
#	id = dhimmi_estate_events.9
#	title = dhimmi_estate_events.9.t
#	desc = dhimmi_estate_events.9.d
#	picture = ADVISOR_eventPicture
#	
#	is_triggered_only = yes
#
#	
#	option = {
#		name = dhimmi_estate_events.9.a #
#	}
#}