#Sayids

alliance = {
	first = KSH
	second = MUL
	start_date = 1399.1.1
	end_date = 1423.1.1
}

#Vassal of Timurids
guarantee = {
	first = TIM
	second = MUL
	start_date = 1399.1.1
	end_date = 1409.1.1 # Stops professing vassalage to Timur
}

vassal = {
	first = KHO
	second = MUL
	start_date = 1409.1.1
	end_date = 1422.1.1 # Stops professing vassalage to Timur
}

#Punjab

alliance = {
	first = PUN
	second = SAM
	start_date = 1420.1.1
	end_date = 1442.1.1
}

alliance = {
	first = PUN
	second = KHO
	start_date = 1420.1.1
	end_date = 1442.1.1
}

#Multan

#Laddakh

#union = { #no longer valid
#	first = TIB
#	second = LDK
#	start_date = 1399.1.1
#	end_date = 1450.1.1
#}

vassal = {
	first = DUR
	second = LDK
	start_date = 1752.1.1
	end_date = 1809.1.1
}

#Kashmir

#For Durrani see Afghan file

#Bahawalpur

vassal = {
	first = PUN
	second = BHW
	start_date = 1818.1.1
	end_date = 1838.1.1
}

#Patiala

#was protectorate
vassal = {
	first = GBR
	second = PTA
	start_date = 1803.1.1
	end_date = 1946.1.1
}

#Kangra
vassal = {
	first = PUN
	second = KGR
	start_date = 1806.1.1
	end_date = 1848.1.1
}

# validator fix - no vassal and alliance at same time
# alliance = {
#	first = PUN
#	second = KGR
#	start_date = 1806.1.1
#	end_date = 1848.1.1
# }