1346.8.26  = { emperor = BOH }
1437.12.9  = { emperor = HAB }
1439.10.27 = { emperor = STY }
1457.11.24 = { emperor = HAB }
1519.1.12  = { emperor = SPA }
1556.1.16  = { emperor = HAB }
1740.12.22 = { emperor = BAV }
1745.1.21  = { emperor = TUS }
1765.1.1   = { emperor = HAB }
1806.7.12  = { emperor = xxx } 
