# Country name see file name.

graphical_culture = westerngfx

color = { 83  149  105 }

historical_idea_groups = {
	naval_ideas
	administrative_ideas
	trade_ideas
	aristocracy_ideas
	economic_ideas
	logistic_ideas
	spy_ideas
	exploration_ideas
	innovativeness_ideas
	quality_ideas
}

historical_units = { #English group
	western_spearman_infantry
	western_raid_cavalry
	western_longbow_infantry
	unique_ENG_yeoman_infantry
	western_mountedarcher_cavalry
	western_pike_infantry
	western_gendarme_cavalry
	western_pikeandshot_infantry
	western_earlytercio_infantry
	western_cuirassier_cavalry
	western_tercio_infantry
	western_musketeersquare_infantry
	western_dragoon_cavalry
	western_countermarch_infantry
	western_volley_infantry
	western_regular_infantry
	western_line_infantry
	western_mediumhussar_cavalry
	western_rifled_infantry
	western_lighthussar_cavalry
	western_impulse_infantry
	western_lancer_cavalry
	western_breech_infantry
	}

leader_names = { 
	Atkinson Armstrong
	Ball Bell Birkett Braithwaite Burdon
	Carlisle Cavendish Carr Charlton
	Dacre Dixon Dodd
	Elliott 
	Featherstonehaugh Fenwick
	Graham Grey
	Hall Heron Hodgson Hume
	Lambton Liddell Lowther Lumley
	Marley Milburn Musgrave
	Neville 
	Percy
	Radcliffe Robinson Robson
	Scott Shafto Swinburne
	Todhunter Tyson	
}

monarch_names = {
	"Henry #0" = 140
	"Algernon #0" = 40
	"Hugh #0" = 20
	"Henry Algernon #0" = 20
	"Josceline #0" = 20
	"Thomas #0" = 20
	"Charles #0" = 10
	"George #0" = 10
	"William #0" = 10
	"Richard #0" = 5
	"Alan #0" = 5
	"Ingelram #0" = 5
	"Ralph #0" = 5
	"John #0" = 1
	"Ashton #0" = 1
	"Bruce #0" = 1
	"Clarence #0" = 1
	"Curtis #0" = 1
	"Darrell #0" = 1
	"Edgar #0" = 1
	"Edward #0" = 1
	"Fulk #0" = 1
	"Gabriel #0" = 1
	"Hector #0" = 1
	"Jasper #0" = 1
	"Keith #0" = 1
	"Daniel #0" = 1
	"Malcolm #0" = 1
	"Michael #0" = 1
	"Nathan #0" = 1
	"Ned #0" = 1
	"Osborn #0" = 1
	"Patrick #0" = 1
	"David #0" = 1
	"Sean #0" = 1
	"Timothy #0" = 1
	"Robert #0" = 1
	"Victor #0" = 1
	"Walter #0" = 1
	"Zachariah #0" = 1
	
	"Philippa #0" = -1
	"Isabella #0" = -1
	"Joan #0" = -1
	"Mary #0" = -40
	"Elizabeth #0" = -20
	"Anne #0" = -20
	"Margaret #0" = -1
	"Blanche #0" = -1
	"Katherine #0" = -1
	"Catherine #0" = -1
	"Jane #0" = -1
	"Cecily #0" = -1
	"Henrietta #0" = -1
	"Louisa #0" = -1
	"Isabel #0" = -1
	"Sophia #0" = -1
	"Caroline #0" = -1
	"Amelia #0" = -1
	"Charlotte #0" = -1
	"Augusta #0" = -1
	"Adelaide #0" = -1
	"Victoria #0" = -1
}

ship_names = {
          Aethelfrith Alnwick
          Bamburgh Bede Bernicia Berwick Blackadder Borderer Bowes
          Carlisle Cheviot Cumberland
          Derwent Durham
          Eden
          Hadrian Helvellyn
          Jarrow
          Lindisfarne
          Morpeth
          Newcastle Northumbria
          Penrith Percy
          Reiver Rheged
          Scafell Shap Skiddaw Solway "St Cuthbert" "St Edwin" "St Oswald" Sunderland
          Tees Tweed Tyne
          Wear Westmorland Windermere
}
