
#########################################################
#		Religious conversion events		#
#########################################################

# Pagan to Catholic
province_event = {
	id = event_random_province.5001
	title = "EVTNAME5001"
	desc = "EVTDESC5001"
	picture = RELIGIOUS_CONVERSION_eventPicture
	
	trigger = {
		OR = {
			religion = animism
			religion = shamanism
			religion = tengri_pagan_reformed
			religion = aztec_reformed
			religion = inca_reformed
			religion = pantheism
			religion = west_african_pagan_reformed
			religion = polynesian_religion
		}
		owner = {
			OR = {
				religion = animism
				religion = shamanism
				religion = tengri_pagan_reformed
				religion = aztec_reformed
				religion = inca_reformed
				religion = pantheism
				religion = west_african_pagan_reformed
				religion = polynesian_religion
			}
			any_neighbor_country = {
				religion = catholic
				has_opinion = { who = ROOT value = 100 }
			}
		}
	}

	mean_time_to_happen = {
		years = 416 # Random Province Event
		
		modifier = {
			factor = 0.5
			owner = {
				NOT = { culture_group = ROOT }
			}
		}
		modifier = {
			factor = 1.5
			owner = {
				advisor = theologian
			}
		}
	}

	option = {
		name = "EVTOPTA5001"		# Convert to Catholicism
		ai_chance = { factor = 30 }
		change_variable = { which = province_religion value = -14 }
		change_variable = { which = catholic value = 14 }
		change_religion = catholic
	}
	option = {
		name = "EVTOPTB5001"		# Honor the beliefs of our ancestors
		ai_chance = { factor = 70 }
		owner = {
			random = {
				chance = 40
				add_stability_1 = yes
			}
		}
	}
}

# Pagan to Protestant
province_event = {
	id = event_random_province.5002
	title = "EVTNAME5001"
	desc = "EVTDESC5001"
	picture = RELIGIOUS_CONVERSION_eventPicture
	
	trigger = {
		OR = {
			religion = animism
			religion = shamanism
			religion = tengri_pagan_reformed
			religion = aztec_reformed
			religion = inca_reformed
			religion = pantheism
			religion = west_african_pagan_reformed
			religion = polynesian_religion
		}
		owner = {
			OR = {
				religion = animism
				religion = shamanism
				religion = tengri_pagan_reformed
				religion = aztec_reformed
				religion = inca_reformed
				religion = pantheism
				religion = west_african_pagan_reformed
				religion = polynesian_religion
			}
			any_neighbor_country = {
				religion = protestant
				has_opinion = { who = ROOT value = 100 }
			}
		}
	}

	mean_time_to_happen = {
		years = 416 # Random Province Event

		modifier = {
			factor = 0.5
			owner = {
				NOT = { culture_group = ROOT }
			}
		}
		modifier = {
			factor = 1.5
			owner = {
				advisor = theologian
			}
		}
	}

	option = {
		name = "EVTOPTA5001"		# Convert to Protestantism
		ai_chance = { factor = 30 }
		change_variable = { which = province_religion value = -14 }
		change_variable = { which = protestant value = 14 }
		change_religion = protestant
	}
	option = {
		name = "EVTOPTB5001"		# Honor the beliefs of our ancestors
		ai_chance = { factor = 70 }
		owner = {
			random = {
				chance = 40
				add_stability_1 = yes
			}
		}
	}
}

# Pagan to Sunni
province_event = {
	id = event_random_province.5003
	title = "EVTNAME5003"
	desc = "EVTDESC5003"
	picture = PRAYING_eventPicture

	trigger = {
		OR = {
			religion = animism
			religion = shamanism
			religion = tengri_pagan_reformed
			religion = aztec_reformed
			religion = inca_reformed
			religion = pantheism
			religion = west_african_pagan_reformed
			religion = polynesian_religion
		}
		owner = {
			OR = {
				religion = animism
				religion = shamanism
				religion = tengri_pagan_reformed
				religion = aztec_reformed
				religion = inca_reformed
				religion = pantheism
				religion = west_african_pagan_reformed
				religion = polynesian_religion
			}
			any_neighbor_country = {
				religion = sunni
				has_opinion = { who = ROOT value = 100 }
			}
		}
	}

	mean_time_to_happen = {
		years = 416 # Random Province Event

		modifier = {
			factor = 0.5
			owner = {
				NOT = { culture_group = ROOT }
			}
		}
		modifier = {
			factor = 1.5
			owner = {
				advisor = theologian
			}
		}
	}
	
	option = {
		name = "EVTOPTA5003"		# Convert to Sunni
		ai_chance = { factor = 30 }
		change_variable = { which = province_religion value = -14 }
		change_variable = { which = sunni value = 14 }
		change_religion = sunni
	
	}
	option = {
		name = "EVTOPTB5003"		# Honor the beliefs of our ancestors
		ai_chance = { factor = 70 }
		owner = {
			random = {
				chance = 40
				add_stability_1 = yes
			}
		}
	}
}

# Pagan to Shiite
province_event = {
	id = event_random_province.5004
	title = "EVTNAME5003"
	desc = "EVTDESC5003"
	picture = PRAYING_eventPicture
	
	trigger = {
		OR = {
			religion = animism
			religion = shamanism
			religion = tengri_pagan_reformed
			religion = aztec_reformed
			religion = inca_reformed
			religion = pantheism
			religion = west_african_pagan_reformed
			religion = polynesian_religion
		}
		owner = {
			OR = {
				religion = animism
				religion = shamanism
				religion = tengri_pagan_reformed
				religion = aztec_reformed
				religion = inca_reformed
				religion = pantheism
				religion = west_african_pagan_reformed
				religion = polynesian_religion
			}
			any_neighbor_country = {
				religion = shiite
				has_opinion = { who = ROOT value = 100 }
			}
		}
	}

	mean_time_to_happen = {
		years = 416 # Random Province Event

		modifier = {
			factor = 0.5
			owner = {
				NOT = { culture_group = ROOT }
			}
		}
		modifier = {
			factor = 1.5
			owner = {
				advisor = theologian
			}
		}
	}

	
	option = {
		name = "EVTOPTA5003"		# Convert to Shiite
		ai_chance = { factor = 30 }
		change_variable = { which = province_religion value = -14 }
		change_variable = { which = shiite value = 14 }
		change_religion = shiite
	}
	option = {
		name = "EVTOPTB5003"		# Honor the beliefs of our ancestors
		ai_chance = { factor = 70 }
		owner = {
			random = {
				chance = 40
				add_stability_1 = yes
			}
		}
	}
}


#########################################################
#			Revolt events			#
#########################################################

province_event = {
	id = event_random_province.5007
	title = "EVTNAME5005"
	desc = "EVTDESC5005"
	picture = ANGRY_MOB_eventPicture

	trigger = {
		NOT = { local_autonomy = 95 }
		OR = {
			NOT = { tolerance_to_this = 0 }
			AND = {
				has_owner_culture = no
				has_owner_accepted_culture = no
			}
		}
	}

	mean_time_to_happen = {
		years = 260 # Random Province Event
		modifier = {
			factor = 1.2
			owner = { luck = yes }
		}
		modifier = {
			factor = 0.9
			owner = { corruption = 20 }
		}
		modifier = {
			factor = 0.9
			owner = { corruption = 40 }
		}
		modifier = {
			factor = 0.9
			owner = { corruption = 60 }
		}
		modifier = {
			factor = 0.9
			owner = { corruption = 80 }
		}

	}
	
	option = {
		name = "EVTOPTA5005"			# Ignore them		
		add_province_modifier = {
			name = "turmoil_organizing"
			duration = 1825
		}
		add_unrest = 5
	}
	option = {
		name = "EVTOPTB5005"			# Lower taxes
		add_local_autonomy = 40
	}
}

#########################################################
#			Bad harvest		 	#
#########################################################
province_event = {
	id = event_random_province.5016
	title = "EVTNAME5016"
	desc = "EVTDESC5016"
	picture = FARCMNG_eventPicture

	trigger = {
		owner = {
			NOT = {
				num_of_owned_provinces_with = {
					value = 3
					farming_province_trigger = yes
				}
			}
		}
	}

	mean_time_to_happen = {
		years = 1250 # Random Province Event
		
		modifier = {
			factor = 2.0
			owner = { luck = yes }
		}
		modifier = {
			factor = 15.0
			owner = { has_country_flag = harvest }
		}
	}

	option = {
		name = "EVTOPTA5016"		# Attempt to help the people.
		ai_chance = { factor = 45 }
		owner = {
			add_treasury = -40
			set_country_flag = harvest
		}
	}
	option = {
		name = "EVTOPTB5016"		# Quell the revolt.
		ai_chance = { factor = 55 }
		add_province_modifier = {
			name = "peasants_organizing"
			duration = 1825
		}
		add_unrest = 5
		owner = {
			set_country_flag = harvest
		}
	}
}

#########################################################
#		Fortification efforts		  	#
#########################################################

province_event = {
	id = event_random_province.5057
	title = "EVTNAME5057"
	desc = "EVTDESC5057"
	picture = FORT_eventPicture

	trigger = {
		fort_trigger = yes
		owner = {
			mil = 4
			mil_tech = 20
			treasury = 100
		}
		NOT = { has_province_modifier = improved_fortifications }
	}

	mean_time_to_happen = {
		years = 416 # Random Province Event
		
		modifier = {
			factor = 0.5
			owner = {
				fortification_expert = 3
			}
		}
		modifier = {
			factor = 1.5
			owner = {
				NOT = { advisor = fortification_expert }
			}
		}
	}

	option = {
		name = "EVTOPTA5057"		# It's of the utmost importance
		ai_chance = { factor = 55 }
		add_province_modifier = {
			name = "improved_fortifications"
			duration = -1
		}
		owner = { add_treasury = -50 }
	}
	option = {
		name = "EVTOPTB5057"		# It's too expensive
		ai_chance = { factor = 45 }
		owner = { add_prestige = -1 }
	}
}

#########################################################
#			Noble feud			#
#########################################################

province_event = {
	id = event_random_province.5063
	title = "EVTNAME5063"
	desc = "EVTDESC5063"
	picture = COURT_eventPicture

	trigger = {
		owner = {
			full_idea_group = aristocracy_ideas
			government = monarchy
			NOT = { advisor = statesman }
			NOT = { prestige = 10 }
		}
		base_tax = 2
	}

	mean_time_to_happen = {
		years = 416 # Random Province Event
		
		modifier = {
			factor = 0.5
			owner = {
				NOT = { adm = 1 }
			}
		}
		modifier = {
			factor = 2.0
			owner = { luck = yes }
		}
		modifier = {
			factor = 1.5
			owner = { adm = 5 }
		}
	}

	option = {
		name = "EVTOPTA5063"		# Side with one family
		ai_chance = { factor = 50 }
		add_province_modifier = {
			name = "nobles_organizing"
			duration = 1825
		}
		add_unrest = 5
	}
	option = {
		name = "EVTOPTB5063"		# Let them fight it out.
		ai_chance = { factor = 25 }
		add_province_modifier = { name = "feud_trauma" duration = 3650 }
	}
	option = {
		name = "EVTOPTC5063"		# Try to settle the issue.
		ai_chance = { factor = 25 }
		owner = { add_treasury = -100 }	
	}
	option = {
		name = "personality_options.5073.a"
		highlight = yes
		trigger = { owner = { ruler_has_personality = industrious_personality } }
		required_personality = industrious_personality
		add_province_modifier = { name = "industrious_ruler_gravity" duration = 3650 }
	}
	option = {
		name = "personality_options.5073.b"
		highlight = yes
		trigger = { owner = { ruler_has_personality = entrepreneur_personality } }
		required_personality = entrepreneur_personality
		add_province_modifier = { name = "industrious_ruler_gravity" duration = 3650 }
	}
	option = {
		name = "personality_options.5073.c"
		highlight = yes
		trigger = { owner = { ruler_has_personality = expansionist_personality } }
		required_personality = expansionist_personality
		add_province_modifier = { name = "industrious_ruler_gravity" duration = 3650 }
	}
}

#########################################################
#		Boundary dispute			#
#########################################################

province_event = {
	id = event_random_province.5087
	title = "EVTNAME5087"
	desc = "EVTDESC5087"
	picture = BATTLE_eventPicture

	trigger = {
		owner = { is_subject  = no }
		any_neighbor_province = {
			NOT = { owned_by = ROOT }
			NOT = { is_core = ROOT }
			NOT = { is_claim = ROOT }
			NOT = { owned_by = PAP }
			is_capital = no
			NOT = { owner = { is_subject_of = ROOT } }
		}
	}

	mean_time_to_happen = {
		years = 833 # Special Random Province Event
		
		modifier = {
			factor = 10
			owner = { historical_friend_with = ROOT }
		}
		modifier = {
			factor = 0.5
			owner = { historical_rival_with = ROOT }
		}		
		modifier = {
			factor = 1.1
			owner = { NOT = { dip = 1 } }
		}
		modifier = {
			factor = 1.1
			owner = { NOT = { dip = 3 } }
		}
		modifier = {
			factor = 0.9
			owner = {
				dip = 5
			}
		}
		modifier = {
			factor = 0.9
			owner = {
				dip = 6
			}
		}		
	}

	option = {
		name = "EVTOPTA5087" # Press issue
		ai_chance = { factor = 55 }
		random_neighbor_province = {
			limit = {
				NOT = { owned_by = ROOT }
				NOT = { is_core = ROOT }
				NOT = { is_claim = ROOT }
				NOT = { owned_by = PAP }
				is_capital = no
				NOT = { owner = { is_subject_of = ROOT } }
			}
			add_claim = ROOT
			owner = {
				add_casus_belli = {	
					target = ROOT
					type = cb_insult
					months = 36
				}
				add_opinion = { who = ROOT modifier = opinion_press_issue }
			}
		}
	}
	option = {
		name = "EVTOPTB5087" # Settle issue
		ai_chance = { factor = 0 }
		owner = { add_legitimacy = -15 }
	}
}

#########################################################
#			Good harvest			#
#########################################################

province_event = {
	id = event_random_province.6014
	title = "EVTNAME6014"
	desc = "EVTDESC6014"
	picture = FEAST_eventPicture

	trigger = {
		farming_province_trigger = yes
		owner = {
			production_efficiency = 0.5
			num_of_owned_provinces_with = {
				value = 2
				farming_province_trigger = yes
			}
		}
	}

	mean_time_to_happen = {
		years = 416 # Random Province Event
		
#		modifier = {
#			factor = 0.5
#			has_building = treasury_office
#		}
		modifier = {
			factor = 0.5
			owner = { luck = yes }
		}
		modifier = {
			factor = 1.5
			owner = { num_of_cities = 20 }
		}
	}

	option = {
		name = "EVTOPTA6014"		# Put into the treasury
		ai_chance = { factor = 55 }
		owner = { add_years_of_income = 0.25 }
	}
	option = {
		name = "EVTOPTB6014"		# Invest the money
		ai_chance = { factor = 45 }
		owner = { add_adm_power = 50 }
	}
}

#########################################################
#	Religious conversion - Pagan to Buddhism	#
#########################################################
province_event = {
	id = event_random_province.6016
	title = "EVTNAME6016"
	desc = "EVTDESC6016"
	picture = BUDDHA_eventPicture

	trigger = {
		OR = {
			religion = animism
			religion = shamanism
			religion = tengri_pagan_reformed
			religion = aztec_reformed
			religion = inca_reformed
			religion = pantheism
			religion = west_african_pagan_reformed
			religion = polynesian_religion
		}
		owner = {
			OR = {
				religion = animism
				religion = shamanism
				religion = tengri_pagan_reformed
				religion = aztec_reformed
				religion = inca_reformed
				religion = pantheism
				religion = west_african_pagan_reformed
				religion = polynesian_religion
			}
			any_neighbor_country = {
				religion = buddhism
				has_opinion = { who = ROOT value = 100 }
			}
		}
	}

	mean_time_to_happen = {
		years = 416 # Random Province Event

		modifier = {
			factor = 0.5
			owner = {
				NOT = { culture_group = ROOT }
			}
		}
		modifier = {
			factor = 1.5
			owner = {
				advisor = theologian
			}
		}
	}

	option = {
		name = "EVTOPTA6016"		# Convert to Buddhism
		ai_chance = { factor = 30 }
		change_variable = { which = province_religion value = -14 }
		change_variable = { which = buddhism value = 14 }
		change_religion = buddhism
	}
	option = {
		name = "EVTOPTB6016"		# Honor the beliefs of our ancestors
		ai_chance = { factor = 70 }
		owner = {
			random = {
				chance = 40
				add_stability_1 = yes
			}
		}
	}
}


#########################################################
#			Protect our Faith		#
#########################################################
province_event = {
	id = event_random_province.6032
	title = "EVTNAME6032"
	desc = "EVTDESC6032"
	picture = COURT_eventPicture

	trigger = {
		owner = { religion = ROOT }
		any_neighbor_province = {
			NOT = { owned_by = ROOT }
			NOT = { is_core = ROOT }
			NOT = { is_claim = ROOT }
			religion = ROOT
			owner = {
				religion_group = ROOT
				NOT = { religion = ROOT }
			}
			NOT = { owner = { is_subject_of = ROOT } }

		}
		owner = { is_subject  = no }
	}

	mean_time_to_happen = {
		years = 833 # Special Random Province Event
		
		modifier = {
			factor = 10
			owner = { historical_friend_with = ROOT }
		}
		modifier = {
			factor = 0.5
			owner = { historical_rival_with = ROOT }
		}		
		modifier = {
			factor = 1.2
			owner = { NOT = { dip = 1 } }
		}
		modifier = {
			factor = 2.0
			owner = { luck = yes }
		}
		modifier = {
			factor = 0.8
			owner = { is_defender_of_faith = yes }
		}
		modifier = {
			factor = 0.8
			owner = {
				dip = 5
			}
		}
	}

	option = {
		name = "EVTOPTA6032" # Press issue
		ai_chance = { factor = 55 }
		random_neighbor_province = {
			limit = {
				NOT = { owned_by = ROOT }
				NOT = { is_core = ROOT }
				NOT = { is_claim = ROOT }
				religion = ROOT
				owner = {
					religion_group = ROOT
					NOT = { religion = ROOT }
				}
				NOT = { owner = { is_subject_of = ROOT } }
			}
			add_claim = ROOT
			owner = {
				add_casus_belli = {	
					target = ROOT
					type = cb_insult
					months = 12
				}
				add_opinion = { who = ROOT modifier = opinion_protect_faith }
			}
		}
	}
	option = {
		name = "EVTOPTB6032" # Settle issue
		ai_chance = { factor = 0 }
		owner = { random_list = { 30 = {} 40 = { subtract_variable = { which = stability_points value = 50 } } 30 = { subtract_stability_1 = yes } } }
	}
}

#########################################################
#		Cultural Dispute			#
#########################################################
province_event = {
	id = event_random_province.6033
	title = "EVTNAME6033"
	desc = "EVTDESC6033"
	picture = DIPLOMACY_eventPicture

	trigger = {
		owner = { culture_group = ROOT }
		any_neighbor_province = {
			NOT = { owned_by = ROOT }
			NOT = { is_core = ROOT }
			NOT = { is_claim = ROOT }
			culture_group = ROOT
			owner = {
				NOT = { primary_culture = ROOT }
				NOT = { accepted_culture = ROOT }
				NOT = { culture_group = ROOT }
				OR = {
					NOT = { adm = 2 }
					NOT = { mil = 2	}
				}
			}
			NOT = { owner = { is_subject_of = ROOT } }
		}
		owner = { is_subject  = no }
	}

	mean_time_to_happen = {
		years = 833 # Special Random Province Event
		
		modifier = {
			factor = 10
			owner = { historical_friend_with = ROOT }
		}
		modifier = {
			factor = 0.5
			owner = { historical_rival_with = ROOT }
		}		
		modifier = {
			factor = 2.0
			owner = { NOT = { dip = 1 } }
		}
		modifier = {
			factor = 2.0
			owner = { has_idea = humanist_tolerance }
		}		
		modifier = {
			factor = 2.0
			owner = { luck = yes }
		}
		modifier = {
			factor = 0.8
			owner = {
				dip = 5
			}
		}
	}

	option = {
		name = "EVTOPTA6033" # Press issue
		ai_chance = { factor = 55 }
		random_neighbor_province = {
			limit = {
				NOT = { owned_by = ROOT }
				NOT = { is_core = ROOT }
				NOT = { is_claim = ROOT }
				culture_group = ROOT
				owner = {
					NOT = { primary_culture = ROOT }
					NOT = { accepted_culture = ROOT }
					NOT = { culture_group = ROOT }
					OR = {
						NOT = { adm = 2 }
						NOT = { mil = 2	}
					}
				}
				NOT = { owner = { is_subject_of = ROOT } }
			}
			 add_claim = ROOT
			owner = {
				add_casus_belli = {	
					target = ROOT
					type = cb_insult
					months = 12
				}
				add_opinion = { who = ROOT modifier = opinion_press_issue }
			}
		}
	}
	option = {
		name = "EVTOPTB6033" # Settle issue
		ai_chance = { factor = 0 }
		owner = { add_prestige = -5 }
	}
}

province_event = {
	id = event_random_province.746
	title = "EVTNAME746"
	desc = "EVTDESC746"
	picture = DIPLOMACY_eventPicture

	trigger = {
		owner = {
			war_exhaustion = 15
			is_at_war = yes
			NOT = { war_score = -10 }
		}
		OR = {
			AND = {
				has_owner_culture = no
				culture = controller
			}
			controller = { is_nomad = yes }
		}
		garrison = 1000
		is_capital = no
		has_siege = no
		NOT = { controlled_by = owner }
		NOT = { controller = { tag = REB } }
		NOT = { controller = { tag = NAT } }
		NOT = { controller = { tag = PIR } }
		controller = { 
			NOT = { war_exhaustion = 5 }
		}
	}

	mean_time_to_happen = {
		years = 25
		modifier = {
			factor = 5.0
			owner = { luck = yes }
		}		
		modifier = {
			factor = 0.8
			has_owner_religion = no
		}		
		modifier = {
			factor = 0.8
			owner = { NOT = { prestige = 0 } }
		}		
		modifier = {
			factor = 0.8
			owner = { NOT = { prestige = -50 } }
		}	
		modifier = {
			factor = 0.8
			owner = { NOT = { stability = 0 } }
		}
		modifier = {
			factor = 2.0
			controller = { is_nomad = yes }
		}
	}

	option = {
		name = "EVTOPTA746"
		controller = { country_event = { id = purely_nasty.747 } }
	}
}

province_event = {
	id = event_random_province.757
	title = "EVTNAME757"
	desc = "EVTDESC757"
	picture = ANGRY_MOB_eventPicture
	
	trigger = {
		owner = { overextension_percentage = 1.01 }
		owner = { war_exhaustion = 6 }
		owner = { NOT = { num_of_revolts = 3 } }
		NOT = { controlled_by = REB }
	}

	mean_time_to_happen = {
		years = 20
		modifier = {
			factor = 5.0
			owner = { luck = yes }
		}		
		modifier = {
			factor = 2.0
			owner = {
				NOT = { num_of_cities = 5 }
			}
		}
		modifier = {
			factor = 2.0
			owner = {
				NOT = { num_of_cities = 10 }
			}
		}
		modifier = {
			factor = 0.85
			owner = { war_exhaustion = 10 }
		}
		modifier = {
			factor = 0.85
			owner = { war_exhaustion = 15 }
		}
	}

	option = {
		name = "EVTOPTA757"
		random_list = {
			30 = {
				if = {
					limit = {
						NOT = { has_province_modifier = nobles_organizing }
					}
					add_province_modifier = {
						name = "nobles_organizing"
						duration = 1825
					}
					add_unrest = 5
				}
				random_neighbor_province = {
					limit = {
						owned_by = ROOT
						NOT = { has_province_modifier = nobles_organizing }
					}
					add_province_modifier = {
						name = "nobles_organizing"
						duration = 1825
					}
					add_unrest = 5
				}
			}
			20 = {
				if = {
					limit = {
						NOT = { has_province_modifier = nobles_organizing }
					}
					add_province_modifier = {
						name = "nobles_organizing"
						duration = 1825
					}
					add_unrest = 5
				}
				random_neighbor_province = {
					limit = {
						owned_by = ROOT
						NOT = { has_province_modifier = nobles_organizing }
					}
					add_province_modifier = {
						name = "nobles_organizing"
						duration = 1825
					}
					add_unrest = 5
				}
				random_neighbor_province = {
					limit = {
						owned_by = ROOT
						NOT = { has_province_modifier = nobles_organizing }
					}
					add_province_modifier = {
						name = "nobles_organizing"
						duration = 1825
					}
					add_unrest = 5
				}
			}
			30 = {
				if = {
					limit = {
						NOT = { has_province_modifier = peasants_organizing }
					}
					add_province_modifier = {
						name = "peasants_organizing"
						duration = 1825
					}
					add_unrest = 5
				}
				random_neighbor_province = {
					limit = {
						owned_by = ROOT
						NOT = { has_province_modifier = peasants_organizing }
					}
					add_province_modifier = {
						name = "peasants_organizing"
						duration = 1825
					}
					add_unrest = 5
				}
			}
			20 = {
				if = {
					limit = {
						NOT = { has_province_modifier = peasants_organizing }
					}
					add_province_modifier = {
						name = "peasants_organizing"
						duration = 1825
					}
					add_unrest = 5
				}
				random_neighbor_province = {
					limit = {
						owned_by = ROOT
						NOT = { has_province_modifier = peasants_organizing }
					}
					add_province_modifier = {
						name = "peasants_organizing"
						duration = 1825
					}
					add_unrest = 5
				}
				random_neighbor_province = {
					limit = {
						owned_by = ROOT
						NOT = { has_province_modifier = peasants_organizing }
					}
					add_province_modifier = {
						name = "peasants_organizing"
						duration = 1825
					}
					add_unrest = 5
				}
			}
		}
	}
}

# Events for HRE members
province_event = {
	id = event_random_province.758
	title = "EVTNAME758"
	desc = "EVTDESC758"
	picture = HRE_eventPicture
	
	trigger = {
		is_part_of_hre = yes
		is_capital = yes
		owner = {
			is_at_war = no
			stability = 2
			emperor = { truce_with = ROOT }
			is_lesser_in_union = no
			is_free_or_tributary_trigger = yes
		}
	}

	mean_time_to_happen = {
		years = 20
		modifier = {
			factor = 0.9
			owner = { luck = yes }
		}
		modifier = {
			factor = 0.9
			owner = { legitimacy = 100 }
		}
		modifier = {
			factor = 0.9
			owner = { stability = 3 }
		}
	}
	
	option = {
		name = "EVTOPTA758"
		owner = { add_prestige = 10 }
	}
}

# Horde event

province_event = {
	id = event_random_province.949
	title = "EVTNAME746"
	desc = "EVTDESC746"
	picture = HORDE_ON_HORSEBACK_eventPicture

	trigger = {
		controller = { government = steppe_horde }
		any_neighbor_province = {
			controlled_by = owner
			owner = { government = steppe_horde }
		}
		NOT = { controlled_by = owner }
		NOT = { owner = { government = steppe_horde } }
		owner = { war_exhaustion = 5 }
		garrison = 1000
		has_siege = no
		
	}

	mean_time_to_happen = {
		years = 25
		modifier = {
			factor = 5.0
			owner = { luck = yes }
		}		
		modifier = {
			factor = 0.8
			has_owner_religion = no
		}
	}

	option = {
		name = "EVTOPTA746"
		controller = { country_event = { id = purely_nasty.747 } }
	}
}

# Border Tension
province_event = {
	id = event_random_province.9471
	title = "EVTNAME9471"
	desc = "EVTDESC9471"
	picture = LAND_MILITARY_eventPicture
	
	trigger = {
		any_neighbor_province = {
			owner = {
				NOT = { has_casus_belli_against = ROOT }
				is_rival = ROOT
				is_free_or_tributary_trigger = yes
			}
			OR = {
				owner = { is_part_of_hre = no }
				ROOT = { owner = { is_part_of_hre = no } }
			}
			NOT = { owned_by = ROOT }
			NOT = { is_core = ROOT }
			NOT = { is_claim = ROOT }
		}
		is_capital = no
	}
	
	mean_time_to_happen = {
		years = 500
	}
	
	option = {
		name = "EVTOPTA9471"
		random_neighbor_province = {
			limit = {
				NOT = { owned_by = ROOT }
				owner = {
					NOT = { has_casus_belli_against = ROOT }
					is_rival = ROOT
					is_free_or_tributary_trigger = yes
					is_lesser_in_union = no
				}
				OR = {
					owner = { is_part_of_hre = no }
					ROOT = { owner = { is_part_of_hre = no } }
				}
				NOT = { is_core = ROOT }
				NOT = { is_claim = ROOT }
			}
			owner = {
				tooltip = {
					add_claim = ROOT
				}
				hidden_effect = {
					country_event = { id = event_random_province.6436  }
				}
			}
		}
	}
}

# Border Tension
country_event = {
	id = event_random_province.6436
	title = "EVTNAME6436"
	desc = "EVTDESC6436"
	picture = LAND_MILITARY_eventPicture
	
	is_triggered_only = yes	
	
	option = {
		name = "EVTOPTA6436"
		add_claim = FROM
	}
}

# Benign Neglect
province_event = {
	id = event_random_province.9472
	title = "EVTNAME9472"
	desc = "EVTDESC9472"
	picture = MERCHANTS_TALKING_eventPicture
	
	trigger = {
		NOT = {
			OR = {
				has_province_modifier = benign_neglect_trade
				has_province_modifier = benign_neglect_tax
				has_province_modifier = benign_neglect_manpower
			}
			any_neighbor_province = {
				owned_by = ROOT
				is_capital = yes
			}
		}
		is_capital = no
	}
	
	mean_time_to_happen = {
		years = 2500
	}
	
	option = {
		name = "EVTOPTA9472"
		add_province_modifier = {
			name = "benign_neglect_trade"
			duration = 3650
		}
	}
	option = {
		name = "EVTOPTB9472"
		add_province_modifier = {
			name = "benign_neglect_tax"
			duration = 3650
		}
	}
	option = {
		name = "EVTOPTC9472"
		add_province_modifier = {
			name = "benign_neglect_manpower"
			duration = 3650
		}
	}
}

# Dissolution Uprising - Anti-blobbing
province_event = {
	id = event_random_province.3097
	title = "EVTNAME3097"
	desc = "EVTDESC3097"
	picture = ANGRY_MOB_eventPicture
	
	trigger = {
		owner = {
			num_of_revolts = 1
			num_of_cities = 10
		}
		controlled_by = ROOT
		OR = {
			has_owner_culture = no
			has_owner_religion = no
		}
	}
	
	mean_time_to_happen = {
		years = 100

		modifier = {
			factor = 10
			owner = { luck = yes }
		}
		modifier = {
			factor = 2
			owner = { stability = 3 }
		}
		modifier = {
			factor = 2
			owner = { stability = 1 }
		}
		modifier = {
			factor = 0.8
			NOT = { owner = { stability = 0 } }
		}
		modifier = {
			factor = 0.8
			NOT = { owner = { stability = -1 } }
		}
		modifier = {
			factor = 1.5
			owner = { legitimacy = 75 }
		}
		modifier = {
			factor = 1.5
			owner = { legitimacy = 90 }
		}
		modifier = {
			factor = 0.8
			owner = { NOT = { legitimacy = 50 } }
		}
		modifier = {
			factor = 0.8
			owner = { NOT = { legitimacy = 25 } }
		}
		modifier = {
			factor = 0.8
			owner = { is_tribal = yes  }
		}
		modifier = {
			factor = 0.8
			owner = { is_at_war = yes }
		}
		modifier = {
			factor = 0.9
			owner = { num_of_cities = 20 }
		}
		modifier = {
			factor = 0.9
			owner = { num_of_cities = 40 }
		}
		modifier = {
			factor = 0.9
			owner = { num_of_cities = 60 }
		}
		modifier = {
			factor = 0.9
			owner = { num_of_cities = 80 }
		}
		modifier = {
			factor = 0.9
			owner = { num_of_revolts = 2 }
		}
		modifier = {
			factor = 0.9
			owner = { num_of_revolts = 3 }
		}
		modifier = {
			factor = 2
			NOT = { unrest = 1 }
		}
		modifier = {
			factor = 0.9
			unrest = 5
		}
		modifier = {
			factor = 0.9
			unrest = 10
		}
	}
	
	option = {
		name = "EVTOPTA3097" # Jackals! Vultures!
		add_province_modifier = {
			name = "turmoil_organizing"
			duration = 1825
		}
		add_unrest = 5
	}
}

######### Product Events #######

# Excellent Vintage
country_event = {
	id = event_random_country.6419
	title = "EVTNAME6419"
	desc = "EVTDESC6419"
	picture = TRADEGOODS_eventPicture

	trigger = {
		any_core_province = {
			trade_goods = wine
		}
	}

	mean_time_to_happen = {
		months = 720
	}

	option = {
		name = "EVTOPTA6419"

		add_prestige = 5
	}
}

# Poor Vintage
country_event = {
	id = event_random_country.6420 
	title = "EVTNAME6420"
	desc = "EVTDESC6420"
	picture = TRADEGOODS_eventPicture

	trigger = {
		any_core_province = {
			trade_goods = wine
		}
	}

	mean_time_to_happen = {
		months = 720
	}

	option = {
		name = "EVTOPTA6420"
		# owner = { add_prestige = -5 }
		add_prestige = -5
	}
}

# Slave uprising
province_event = {
	id = event_random_province.6435
	title = "EVTNAME6435"
	desc = "EVTDESC6435"
	picture = ANGRY_MOB_eventPicture

	trigger = {
		owner = { NOT = { has_country_modifier = the_abolish_slavery_act } }
		OR = {
			trade_goods = coffee
			trade_goods = cotton
			trade_goods = sugar
			trade_goods = tobacco
			trade_goods = opium
		}
		NOT = {
			religion = animism
			religion = shamanism
			religion = tengri_pagan_reformed
			religion = aztec_reformed
			religion = inca_reformed
			religion = pantheism
			religion = west_african_pagan_reformed
			religion = polynesian_religion
		}
	}

	mean_time_to_happen = {
		years = 300
	}

	option = {
		name = "EVTOPTA6435"
		add_unrest = 15
	}
}
