
# Foundation of the Lanfang Republic
country_event = {
	id = borneo.1
	title = "borneo.t1"
	desc = "borneo.d1"
	picture = DEBATE_REPUBLICAN_eventPicture
	fire_only_once = yes

	trigger = {
		tag = SKD
		is_year = 1770
		owns_core_province = 2090		
	}
	mean_time_to_happen = {
		years = 10
	}
	option = {
		name = "borneo.EVTOPTA1"
		ai_chance = { factor = 100 }
		change_government = administrative_republic
		change_primary_culture = hakka
		define_ruler = {
			name = "Luo Fangbo"
		}
	}
	option = {
		name = "borneo.EVTOPTB1"
		ai_chance = { factor = 0 }
		add_prestige = 10
	}
}

country_event = {
	id = borneo.2
	title = "borneo.t2"
	desc = "borneo.d2"
	picture = RELIGION_eventPicture

	trigger = {
		tag = BEI
		is_year = 1470
		655 = {
			is_empty = yes
		}
	}
	mean_time_to_happen = {
		months = 60
	}
	option = {
		name = "borneo.EVTOPTA2"
		655 = {
			add_core = BEI
			cede_province = BEI
		}
		add_treasury = -100
	}
	option = {
		name = "borneo.EVTOPTB2"
		add_prestige = -5
	}
}
