##################################
# MEIOU and Taxes - Removing Cores
##################################
remove_obsolete_cores_effect = {
	every_province = {
		if = {
			limit = {
				is_core = BYZ
				NOT = { exists = BYZ }
			}
			remove_core = BYZ
		}
		if = {
			limit = {
				is_core = ENR
				NOT = { exists = ENR }
			}
			remove_core = ENR
		}
		if = {
			limit = {
				is_core = TEU
				NOT = { exists = TEU }
			}
			remove_core = TEU
		}
		if = {
			limit = {
				is_core = LVO
				NOT = { exists = LVO }
			}
			remove_core = LVO
		}
		if = {
			limit = {
				is_core = KNI
				NOT = { exists = KNI }
			}
			remove_core = KNI
		}
		if = {
			limit = {
				is_core = RSW
				NOT = { exists = RSW }
			}
			remove_core = RSW
		}
		if = {
			limit = {
				is_core = PKA
				exists = POM
				NOT = { exists = PKA }
			}
			remove_core = PKA
		}
		if = {
			limit = {
				is_core = PSP
				exists = POM
				NOT = { exists = PSP }
			}
			remove_core = PSP
		}
		if = {
			limit = {
				is_core = PST
				exists = POM
				NOT = { exists = PST }
			}
			remove_core = PST
		}
		if = {
			limit = {
				is_core = PWO
				exists = POM
				NOT = { exists = PWO }
			}
			remove_core = PWO
		}
		if = {
			limit = {
				is_core = BAW
				exists = BAV
				NOT = { exists = BAW }
			}
			remove_core = BAW
		}
		if = {
			limit = {
				is_core = BAX
				exists = BAV
				NOT = { exists = BAX }
			}
			remove_core = BAX
		}
		if = {
			limit = {
				is_core = BAY
				exists = BAV
				NOT = { exists = BAY }
			}
			remove_core = BAY
		}
		if = {
			limit = {
				is_core = BAZ
				exists = BAV
				NOT = { exists = BAZ }
			}
			remove_core = BAZ
		}
	}
}

######################################################################						
# MEIOU and Taxes - Restoring initial cultures of culture primary tags						
######################################################################						
reboot_primary_culture_effect = {
	every_country = {
		limit = { exists = no }
		if = { limit = { tag = POM  NOT = { primary_culture = pommeranian } } change_primary_culture = pommeranian }
		if = { limit = { tag = HAN  NOT = { primary_culture = old_saxon } } change_primary_culture = old_saxon }
		if = { limit = { tag = BRA  NOT = { primary_culture = low_saxon } } change_primary_culture = low_saxon }
		if = { limit = { tag = PRU  NOT = { primary_culture = prussian } } change_primary_culture = prussian }
		if = { limit = { tag = KUR  NOT = { primary_culture = baltendeutsche } } change_primary_culture = baltendeutsche }
		if = { limit = { tag = HES  NOT = { primary_culture = hessian } } change_primary_culture = hessian }
		if = { limit = { tag = SAX  NOT = { primary_culture = high_saxon } } change_primary_culture = high_saxon }
		if = { limit = { tag = JUL  NOT = { primary_culture = ripuarianfranconian } } change_primary_culture = ripuarianfranconian }
		if = { limit = { tag = WBG  NOT = { primary_culture = eastfranconian } } change_primary_culture = eastfranconian }
		if = { limit = { tag = BAV  NOT = { primary_culture = bavarian } } change_primary_culture = bavarian }
		if = { limit = { tag = WUR  NOT = { primary_culture = schwabisch } } change_primary_culture = schwabisch }
		if = { limit = { tag = SWI  NOT = { primary_culture = suisse } } change_primary_culture = suisse }
		if = { limit = { tag = HAB  NOT = { primary_culture = austrian } } change_primary_culture = austrian }
		if = { limit = { tag = HOL  NOT = { primary_culture = dutch } } change_primary_culture = dutch }
		if = { limit = { tag = FLA  NOT = { primary_culture = flemish } } change_primary_culture = flemish }
		if = { limit = { tag = BRB  NOT = { primary_culture = brabantian } } change_primary_culture = brabantian }
		if = { limit = { tag = HAI  NOT = { primary_culture = wallonian } } change_primary_culture = wallonian }
		# if = { limit = { tag = BUR  NOT = { primary_culture = burgundian } } change_primary_culture = burgundian }
		if = { limit = { tag = FRI  NOT = { primary_culture = frisian } } change_primary_culture = frisian }
		if = { limit = { tag = SWE  NOT = { primary_culture = swedish } } change_primary_culture = swedish }
		if = { limit = { tag = OST  NOT = { primary_culture = gotar } } change_primary_culture = gotar }
		if = { limit = { tag = GOT  NOT = { primary_culture = gutnish } } change_primary_culture = gutnish }
		if = { limit = { tag = FIN  NOT = { primary_culture = finnish } } change_primary_culture = finnish }
		if = { limit = { tag = EST  NOT = { primary_culture = estonian } } change_primary_culture = estonian }
		if = { limit = { tag = DEN  NOT = { primary_culture = danish } } change_primary_culture = danish }
		if = { limit = { tag = SKA  NOT = { primary_culture = scanian } } change_primary_culture = scanian }
		if = { limit = { tag = NOR  NOT = { primary_culture = norwegian } } change_primary_culture = norwegian }
		if = { limit = { tag = ICE  NOT = { primary_culture = norse } } change_primary_culture = norse }
		if = { limit = { tag = ENG  NOT = { primary_culture = english } } change_primary_culture = english }
		if = { limit = { tag = NOL  NOT = { primary_culture = northern_e } } change_primary_culture = northern_e }
		if = { limit = { tag = SCO  NOT = { primary_culture = lowland_scottish } } change_primary_culture = lowland_scottish }
		if = { limit = { tag = USA  NOT = { primary_culture = british_colonial } } change_primary_culture = british_colonial }
		if = { limit = { tag = IRE  NOT = { primary_culture = irish } } change_primary_culture = irish }
		if = { limit = { tag = MEA  NOT = { primary_culture = hiberno_norman } } change_primary_culture = hiberno_norman }
		if = { limit = { tag = WLS  NOT = { primary_culture = welsh } } change_primary_culture = welsh }
		if = { limit = { tag = BRI  NOT = { primary_culture = breton } } change_primary_culture = breton }
		if = { limit = { tag = CRN  NOT = { primary_culture = cornish } } change_primary_culture = cornish }
		if = { limit = { tag = MLO  NOT = { primary_culture = lombard } } change_primary_culture = lombard }
		if = { limit = { tag = COR  NOT = { primary_culture = corsican } } change_primary_culture = corsican }
		if = { limit = { tag = SAV  NOT = { primary_culture = piedmontese } } change_primary_culture = piedmontese }
		if = { limit = { tag = GEN  NOT = { primary_culture = ligurian } } change_primary_culture = ligurian }
		if = { limit = { tag = VEN  NOT = { primary_culture = venetian } } change_primary_culture = venetian }
		if = { limit = { tag = MOD  NOT = { primary_culture = emilian } } change_primary_culture = emilian }
		if = { limit = { tag = TUS  NOT = { primary_culture = tuscan } } change_primary_culture = tuscan }
		if = { limit = { tag = RAG  NOT = { primary_culture = dalmatian } } change_primary_culture = dalmatian }
		if = { limit = { tag = URB  NOT = { primary_culture = umbrian } } change_primary_culture = umbrian }
		if = { limit = { tag = RIM  NOT = { primary_culture = romagnol } } change_primary_culture = romagnol }
		if = { limit = { tag = GBN  NOT = { primary_culture = romansh } } change_primary_culture = romansh }
		if = { limit = { tag = AQU  NOT = { primary_culture = friulian } } change_primary_culture = friulian }
		if = { limit = { tag = SIC  NOT = { primary_culture = sicilian } } change_primary_culture = sicilian }
		if = { limit = { tag = KNP  NOT = { primary_culture = neapolitan } } change_primary_culture = neapolitan }
		if = { limit = { tag = SAR  NOT = { primary_culture = sardinian } } change_primary_culture = sardinian }
		if = { limit = { tag = CAS  NOT = { primary_culture = castillian } } change_primary_culture = castillian }
		if = { limit = { tag = LEO  NOT = { primary_culture = asturian } } change_primary_culture = asturian }
		if = { limit = { tag = ARA  NOT = { primary_culture = aragonese } } change_primary_culture = aragonese }
		if = { limit = { tag = POR  NOT = { primary_culture = portugese } } change_primary_culture = portugese }
		if = { limit = { tag = GAL  NOT = { primary_culture = galician } } change_primary_culture = galician }
		if = { limit = { tag = FRA  NOT = { primary_culture = francien } } change_primary_culture = francien }
		if = { limit = { tag = NRM  NOT = { primary_culture = normand } } change_primary_culture = normand }
		if = { limit = { tag = ARS  NOT = { primary_culture = picard } } change_primary_culture = picard }
		if = { limit = { tag = LOR  NOT = { primary_culture = lorrain } } change_primary_culture = lorrain }
		if = { limit = { tag = BUR  NOT = { primary_culture = bourguignon } } change_primary_culture = bourguignon }
		if = { limit = { tag = ANJ  NOT = { primary_culture = angevin } } change_primary_culture = angevin }
		if = { limit = { tag = SAV  NOT = { primary_culture = arpitan } } change_primary_culture = arpitan }
		if = { limit = { tag = CYP  NOT = { primary_culture = frankish } } change_primary_culture = frankish }
		if = { limit = { tag = GUY  NOT = { primary_culture = gascon } } change_primary_culture = gascon }
		if = { limit = { tag = AUV  NOT = { primary_culture = auvergnat } } change_primary_culture = auvergnat }
		if = { limit = { tag = TOU  NOT = { primary_culture = occitain } } change_primary_culture = occitain }
		if = { limit = { tag = VLT  NOT = { primary_culture = vivaroaupenc } } change_primary_culture = vivaroaupenc }
		if = { limit = { tag = AMG  NOT = { primary_culture = limousin } } change_primary_culture = limousin }
		if = { limit = { tag = PRO  NOT = { primary_culture = provencal } } change_primary_culture = provencal }
		if = { limit = { tag = CAT  NOT = { primary_culture = catalan } } change_primary_culture = catalan }
		if = { limit = { tag = BLE  NOT = { primary_culture = balearic } } change_primary_culture = balearic }
		if = { limit = { tag = NAV  NOT = { primary_culture = basque } } change_primary_culture = basque }
		if = { limit = { tag = KRL  NOT = { primary_culture = karelian } } change_primary_culture = karelian }
		if = { limit = { tag = CRO  NOT = { primary_culture = croatian } } change_primary_culture = croatian }
		if = { limit = { tag = SER  NOT = { primary_culture = serbian } } change_primary_culture = serbian }
		if = { limit = { tag = BOS  NOT = { primary_culture = bosnian } } change_primary_culture = bosnian }
		if = { limit = { tag = CAR  NOT = { primary_culture = slovenian } } change_primary_culture = slovenian }
		if = { limit = { tag = WAL  NOT = { primary_culture = vlach } } change_primary_culture = vlach }
		if = { limit = { tag = MOL  NOT = { primary_culture = moldovian } } change_primary_culture = moldovian }
		if = { limit = { tag = TRA  NOT = { primary_culture = transylvanian } } change_primary_culture = transylvanian }
		if = { limit = { tag = NOV  NOT = { primary_culture = novgorodian } } change_primary_culture = novgorodian }
		if = { limit = { tag = MOS  NOT = { primary_culture = russian } } change_primary_culture = russian }
		if = { limit = { tag = UKR  NOT = { primary_culture = ukrainian } } change_primary_culture = ukrainian }
		if = { limit = { tag = PLT  NOT = { primary_culture = byelorussian } } change_primary_culture = byelorussian }
		if = { limit = { tag = KIE  NOT = { primary_culture = ruthenian } } change_primary_culture = ruthenian }
		if = { limit = { tag = TUR  NOT = { primary_culture = turkish } } change_primary_culture = turkish }
		if = { limit = { tag = ERE  NOT = { primary_culture = yorouk } } change_primary_culture = yorouk }
		if = { limit = { tag = GRE  NOT = { primary_culture = greek } } change_primary_culture = greek }
		if = { limit = { tag = ALB  NOT = { primary_culture = albanian } } change_primary_culture = albanian }
		if = { limit = { tag = BUL  NOT = { primary_culture = bulgarian } } change_primary_culture = bulgarian }
		if = { limit = { tag = GEO  NOT = { primary_culture = georgian } } change_primary_culture = georgian }
		if = { limit = { tag = GAZ  NOT = { primary_culture = dagestani } } change_primary_culture = dagestani }
		if = { limit = { tag = CIR  NOT = { primary_culture = circassian } } change_primary_culture = circassian }
		if = { limit = { tag = ARM  NOT = { primary_culture = ge_armenian } } change_primary_culture = ge_armenian }
		if = { limit = { tag = SYU  NOT = { primary_culture = owm_armenian } } change_primary_culture = owm_armenian }
		if = { limit = { tag = KAM  NOT = { primary_culture = cilician } } change_primary_culture = cilician }
		if = { limit = { tag = HUN  NOT = { primary_culture = hungarian } } change_primary_culture = hungarian }
		if = { limit = { tag = BOH  NOT = { primary_culture = czech } } change_primary_culture = czech }
		if = { limit = { tag = MRV  NOT = { primary_culture = moravian } } change_primary_culture = moravian }
		if = { limit = { tag = SIL  NOT = { primary_culture = silesian } } change_primary_culture = silesian }
		if = { limit = { tag = POL  NOT = { primary_culture = polish } } change_primary_culture = polish }
		if = { limit = { tag = LIT  NOT = { primary_culture = lithuanian } } change_primary_culture = lithuanian }
		if = { limit = { tag = LIV  NOT = { primary_culture = latvian } } change_primary_culture = latvian }
		if = { limit = { tag = HEJ  NOT = { primary_culture = hejazi } } change_primary_culture = hejazi }
		if = { limit = { tag = NAJ  NOT = { primary_culture = najdi } } change_primary_culture = najdi }
		if = { limit = { tag = OMA  NOT = { primary_culture = omani } } change_primary_culture = omani }
		if = { limit = { tag = HAD  NOT = { primary_culture = hadhrami } } change_primary_culture = hadhrami }
		if = { limit = { tag = YEM  NOT = { primary_culture = yemeni } } change_primary_culture = yemeni }
		if = { limit = { tag = SAM  NOT = { primary_culture = persian } } change_primary_culture = persian }
		if = { limit = { tag = MZA  NOT = { primary_culture = tabari } } change_primary_culture = tabari }
		if = { limit = { tag = BAL  NOT = { primary_culture = baluchi } } change_primary_culture = baluchi }
		if = { limit = { tag = KRD  NOT = { primary_culture = kurdish } } change_primary_culture = kurdish }
		if = { limit = { tag = DUR  NOT = { primary_culture = pashtun } } change_primary_culture = pashtun }
		if = { limit = { tag = SHI  NOT = { primary_culture = azerbadjani } } change_primary_culture = azerbadjani }
		if = { limit = { tag = MCH  NOT = { primary_culture = jurchen } } change_primary_culture = jurchen }
		if = { limit = { tag = KHA  NOT = { primary_culture = khalkas } } change_primary_culture = khalkas }
		if = { limit = { tag = OIR  NOT = { primary_culture = oirats } } change_primary_culture = oirats }
		if = { limit = { tag = MYR  NOT = { primary_culture = daur } } change_primary_culture = daur }
		if = { limit = { tag = BRT  NOT = { primary_culture = buryat } } change_primary_culture = buryat }
		if = { limit = { tag = CHH  NOT = { primary_culture = chahar } } change_primary_culture = chahar }
		if = { limit = { tag = TMD  NOT = { primary_culture = tumed } } change_primary_culture = tumed }
		if = { limit = { tag = KHR  NOT = { primary_culture = khorchin } } change_primary_culture = khorchin }
		if = { limit = { tag = PRM  NOT = { primary_culture = uralic } } change_primary_culture = uralic }
		if = { limit = { tag = PLM  NOT = { primary_culture = mansi } } change_primary_culture = mansi }
		if = { limit = { tag = KOD  NOT = { primary_culture = khanty } } change_primary_culture = khanty }
		if = { limit = { tag = SKP  NOT = { primary_culture = selkup } } change_primary_culture = selkup }
		if = { limit = { tag = AST  NOT = { primary_culture = astrakhani } } change_primary_culture = astrakhani }
		if = { limit = { tag = CRI  NOT = { primary_culture = crimean } } change_primary_culture = crimean }
		if = { limit = { tag = KAZ  NOT = { primary_culture = kazani } } change_primary_culture = kazani }
		if = { limit = { tag = KZH  NOT = { primary_culture = khazak } } change_primary_culture = khazak }
		if = { limit = { tag = CHG  NOT = { primary_culture = kirgiz } } change_primary_culture = kirgiz }
		if = { limit = { tag = SIB  NOT = { primary_culture = siberian } } change_primary_culture = siberian }
		if = { limit = { tag = GOL  NOT = { primary_culture = tartar } } change_primary_culture = tartar }
		if = { limit = { tag = KHO  NOT = { primary_culture = turkmeni } } change_primary_culture = turkmeni }
		if = { limit = { tag = SHY  NOT = { primary_culture = uzbehk } } change_primary_culture = uzbehk }
		if = { limit = { tag = UIG  NOT = { primary_culture = uyghur } } change_primary_culture = uyghur }
		if = { limit = { tag = BSH  NOT = { primary_culture = bashkir } } change_primary_culture = bashkir }
		if = { limit = { tag = SAK  NOT = { primary_culture = yakut } } change_primary_culture = yakut }
		if = { limit = { tag = DTE  NOT = { primary_culture = tohoku } } change_primary_culture = tohoku }
		if = { limit = { tag = SBA  NOT = { primary_culture = chubu } } change_primary_culture = chubu }
		if = { limit = { tag = USG  NOT = { primary_culture = kanto } } change_primary_culture = kanto }
		if = { limit = { tag = AKG  NOT = { primary_culture = kansai } } change_primary_culture = kansai }
		if = { limit = { tag = OUC  NOT = { primary_culture = chugoku } } change_primary_culture = chugoku }
		if = { limit = { tag = HKW  NOT = { primary_culture = shikoku } } change_primary_culture = shikoku }
		if = { limit = { tag = SMZ  NOT = { primary_culture = kyushu } } change_primary_culture = kyushu }
		if = { limit = { tag = RYU  NOT = { primary_culture = ryukyuan } } change_primary_culture = ryukyuan }
		if = { limit = { tag = KOR  NOT = { primary_culture = korean } } change_primary_culture = korean }
		if = { limit = { tag = QNG  NOT = { primary_culture = manchu } } change_primary_culture = manchu }
		if = { limit = { tag = SNG  NOT = { primary_culture = hanyu } } change_primary_culture = hanyu }
		if = { limit = { tag = ZOU  NOT = { primary_culture = wuhan } } change_primary_culture = wuhan }
		if = { limit = { tag = YUE  NOT = { primary_culture = hakka } } change_primary_culture = hakka }
		if = { limit = { tag = YUE  NOT = { primary_culture = yueyu } } change_primary_culture = yueyu }
		if = { limit = { tag = CEN  NOT = { primary_culture = minyu } } change_primary_culture = minyu }
		if = { limit = { tag = LUS  NOT = { primary_culture = lussong } } change_primary_culture = lussong }
		if = { limit = { tag = KHM  NOT = { primary_culture = khmer } } change_primary_culture = khmer }
		if = { limit = { tag = DAI  NOT = { primary_culture = vietnamese } } change_primary_culture = vietnamese }
		if = { limit = { tag = ZHN  NOT = { primary_culture = zhuang } } change_primary_culture = zhuang }
		if = { limit = { tag = JCH  NOT = { primary_culture = miao } } change_primary_culture = miao }
		if = { limit = { tag = DLI  NOT = { primary_culture = baizu } } change_primary_culture = baizu }
		if = { limit = { tag = NNZ  NOT = { primary_culture = yizu } } change_primary_culture = yizu }
		if = { limit = { tag = CHA  NOT = { primary_culture = cham } } change_primary_culture = cham }
		if = { limit = { tag = MLC  NOT = { primary_culture = malayan } } change_primary_culture = malayan }
		if = { limit = { tag = ATJ  NOT = { primary_culture = acehenese } } change_primary_culture = acehenese }
		if = { limit = { tag = ARU  NOT = { primary_culture = batak } } change_primary_culture = batak }
		if = { limit = { tag = MKP  NOT = { primary_culture = minang } } change_primary_culture = minang }
		if = { limit = { tag = BKS  NOT = { primary_culture = banjar } } change_primary_culture = banjar }
		if = { limit = { tag = SUL  NOT = { primary_culture = tausug } } change_primary_culture = tausug }
		if = { limit = { tag = SUL  NOT = { primary_culture = filipino } } change_primary_culture = filipino }
		if = { limit = { tag = MGD  NOT = { primary_culture = maguindanao } } change_primary_culture = maguindanao }
		if = { limit = { tag = LNA  NOT = { primary_culture = lanna } } change_primary_culture = lanna }
		if = { limit = { tag = LXA  NOT = { primary_culture = laotian } } change_primary_culture = laotian }
		if = { limit = { tag = AYU  NOT = { primary_culture = thai } } change_primary_culture = thai }
		if = { limit = { tag = LDK  NOT = { primary_culture = ladakhi } } change_primary_culture = ladakhi }
		if = { limit = { tag = TIB  NOT = { primary_culture = tibetan } } change_primary_culture = tibetan }
		if = { limit = { tag = BHU  NOT = { primary_culture = bhutanese } } change_primary_culture = bhutanese }
		if = { limit = { tag = SKK  NOT = { primary_culture = sikkimese } } change_primary_culture = sikkimese }
		if = { limit = { tag = TAU  NOT = { primary_culture = burmese } } change_primary_culture = burmese }
		if = { limit = { tag = ARK  NOT = { primary_culture = arakanese } } change_primary_culture = arakanese }
		if = { limit = { tag = PEG  NOT = { primary_culture = monic } } change_primary_culture = monic }
		if = { limit = { tag = SST  NOT = { primary_culture = shan } } change_primary_culture = shan }
		if = { limit = { tag = ASS  NOT = { primary_culture = assamese } } change_primary_culture = assamese }
		if = { limit = { tag = MLB  NOT = { primary_culture = meitei } } change_primary_culture = meitei }
		if = { limit = { tag = SDY  NOT = { primary_culture = sutiya } } change_primary_culture = sutiya }
		if = { limit = { tag = KMT  NOT = { primary_culture = kochrajbongshi } } change_primary_culture = kochrajbongshi }
		if = { limit = { tag = TPR  NOT = { primary_culture = tripuri } } change_primary_culture = tripuri }
		if = { limit = { tag = DMS  NOT = { primary_culture = dimasa } } change_primary_culture = dimasa }
		if = { limit = { tag = BNG  NOT = { primary_culture = bengali } } change_primary_culture = bengali }
		if = { limit = { tag = TRT  NOT = { primary_culture = bihari } } change_primary_culture = bihari }
		if = { limit = { tag = ORI  NOT = { primary_culture = oriya } } change_primary_culture = oriya }
		if = { limit = { tag = ODH  NOT = { primary_culture = avadhi } } change_primary_culture = avadhi }
		if = { limit = { tag = DLH  NOT = { primary_culture = kanauji } } change_primary_culture = kanauji }
		if = { limit = { tag = PTA  NOT = { primary_culture = panjabi } } change_primary_culture = panjabi }
		if = { limit = { tag = KSH  NOT = { primary_culture = kashmiri } } change_primary_culture = kashmiri }
		if = { limit = { tag = BND  NOT = { primary_culture = bundeli } } change_primary_culture = bundeli }
		if = { limit = { tag = BGL  NOT = { primary_culture = bagheli } } change_primary_culture = bagheli }
		if = { limit = { tag = SND  NOT = { primary_culture = sindhi } } change_primary_culture = sindhi }
		if = { limit = { tag = MUL  NOT = { primary_culture = multani } } change_primary_culture = multani }
		if = { limit = { tag = GHR  NOT = { primary_culture = gondi } } change_primary_culture = gondi }
		if = { limit = { tag = NGP  NOT = { primary_culture = nagpuri } } change_primary_culture = nagpuri }
		if = { limit = { tag = GRJ  NOT = { primary_culture = sambalpuri } } change_primary_culture = sambalpuri }
		if = { limit = { tag = KGR  NOT = { primary_culture = pahari } } change_primary_culture = pahari }
		if = { limit = { tag = NPL  NOT = { primary_culture = nepali } } change_primary_culture = nepali }
		if = { limit = { tag = MAR  NOT = { primary_culture = marathi } } change_primary_culture = marathi }
		if = { limit = { tag = BIJ  NOT = { primary_culture = dakani } } change_primary_culture = dakani }
		if = { limit = { tag = JAJ  NOT = { primary_culture = habshi } } change_primary_culture = habshi }
		if = { limit = { tag = KHD  NOT = { primary_culture = khandeshi } } change_primary_culture = khandeshi }
		if = { limit = { tag = MYS  NOT = { primary_culture = kannada } } change_primary_culture = kannada }
		if = { limit = { tag = GOC  NOT = { primary_culture = telegu } } change_primary_culture = telegu }
		if = { limit = { tag = KLN  NOT = { primary_culture = tuluva } } change_primary_culture = tuluva }
		if = { limit = { tag = MEW  NOT = { primary_culture = mewari } } change_primary_culture = mewari }
		if = { limit = { tag = JAU  NOT = { primary_culture = dhundari } } change_primary_culture = dhundari }
		if = { limit = { tag = MAW  NOT = { primary_culture = marwari } } change_primary_culture = marwari }
		if = { limit = { tag = HDT  NOT = { primary_culture = harauti } } change_primary_culture = harauti }
		if = { limit = { tag = MLW  NOT = { primary_culture = malvi } } change_primary_culture = malvi }
		if = { limit = { tag = GUJ  NOT = { primary_culture = gujarati } } change_primary_culture = gujarati }
		if = { limit = { tag = KAT  NOT = { primary_culture = saurashtri } } change_primary_culture = saurashtri }
		if = { limit = { tag = IDR  NOT = { primary_culture = bhil } } change_primary_culture = bhil }
		if = { limit = { tag = BIK  NOT = { primary_culture = jati } } change_primary_culture = jati }
		if = { limit = { tag = GWA  NOT = { primary_culture = tomara } } change_primary_culture = tomara }
		if = { limit = { tag = ALR  NOT = { primary_culture = meo } } change_primary_culture = meo }
		if = { limit = { tag = TRV  NOT = { primary_culture = malayalam } } change_primary_culture = malayalam }
		if = { limit = { tag = KTH  NOT = { primary_culture = sinhala } } change_primary_culture = sinhala }
		if = { limit = { tag = MAD  NOT = { primary_culture = tamil } } change_primary_culture = tamil }
		if = { limit = { tag = MLD  NOT = { primary_culture = mahl } } change_primary_culture = mahl }
		if = { limit = { tag = EGY  NOT = { primary_culture = egyptian } } change_primary_culture = egyptian }
		if = { limit = { tag = SYR  NOT = { primary_culture = shami } } change_primary_culture = shami }
		if = { limit = { tag = IRQ  NOT = { primary_culture = iraqi } } change_primary_culture = iraqi }
		if = { limit = { tag = GRA  NOT = { primary_culture = maure } } change_primary_culture = maure }
		if = { limit = { tag = MOR  NOT = { primary_culture = fassi } } change_primary_culture = fassi }
		if = { limit = { tag = ALG  NOT = { primary_culture = algerian } } change_primary_culture = algerian }
		if = { limit = { tag = TUN  NOT = { primary_culture = tunisian } } change_primary_culture = tunisian }
		if = { limit = { tag = TRP  NOT = { primary_culture = libyan } } change_primary_culture = libyan }
		if = { limit = { tag = CNA  NOT = { primary_culture = guanche } } change_primary_culture = guanche }
		if = { limit = { tag = FEZ  NOT = { primary_culture = tamazight } } change_primary_culture = tamazight }
		if = { limit = { tag = SOS  NOT = { primary_culture = chleuh } } change_primary_culture = chleuh }
		if = { limit = { tag = KBA  NOT = { primary_culture = kabyle } } change_primary_culture = kabyle }
		if = { limit = { tag = TUA  NOT = { primary_culture = tuareg } } change_primary_culture = tuareg }
		if = { limit = { tag = SOK  NOT = { primary_culture = fulani } } change_primary_culture = fulani }
		if = { limit = { tag = MAL  NOT = { primary_culture = mali } } change_primary_culture = mali }
		if = { limit = { tag = DJO  NOT = { primary_culture = senegambian } } change_primary_culture = senegambian }
		if = { limit = { tag = SON  NOT = { primary_culture = songhai } } change_primary_culture = songhai }
		if = { limit = { tag = DAR  NOT = { primary_culture = chadic } } change_primary_culture = chadic }
		if = { limit = { tag = KBO  NOT = { primary_culture = kanouri } } change_primary_culture = kanouri }
		if = { limit = { tag = KON  NOT = { primary_culture = lunda } } change_primary_culture = lunda }
		if = { limit = { tag = NDO  NOT = { primary_culture = mbundu } } change_primary_culture = mbundu }
		if = { limit = { tag = ZAN  NOT = { primary_culture = kiunguja } } change_primary_culture = kiunguja }
		if = { limit = { tag = KIL  NOT = { primary_culture = kimgao } } change_primary_culture = kimgao }
		if = { limit = { tag = SOF  NOT = { primary_culture = kimwani } } change_primary_culture = kimwani }
		if = { limit = { tag = MOG  NOT = { primary_culture = chimwini } } change_primary_culture = chimwini }
		if = { limit = { tag = MKU  NOT = { primary_culture = nubian } } change_primary_culture = nubian }
		if = { limit = { tag = SEN  NOT = { primary_culture = funj } } change_primary_culture = funj }
		if = { limit = { tag = ADA  NOT = { primary_culture = somali } } change_primary_culture = somali }
		if = { limit = { tag = ETH  NOT = { primary_culture = amhara } } change_primary_culture = amhara }
		if = { limit = { tag = MED  NOT = { primary_culture = tigrean } } change_primary_culture = tigrean }
		if = { limit = { tag = SID  NOT = { primary_culture = sidamo } } change_primary_culture = sidamo }
		if = { limit = { tag = DSL  NOT = { primary_culture = silla } } change_primary_culture = silla }
		if = { limit = { tag = DAR  NOT = { primary_culture = foora } } change_primary_culture = foora }
		if = { limit = { tag = KDF  NOT = { primary_culture = nuba } } change_primary_culture = nuba }
		if = { limit = { tag = SLL  NOT = { primary_culture = shilluk } } change_primary_culture = shilluk }
		if = { limit = { tag = CZC  NOT = { primary_culture = quechuan } } change_primary_culture = quechuan }
		if = { limit = { tag = AYM  NOT = { primary_culture = aimara } } change_primary_culture = aimara }
		if = { limit = { tag = NZC  NOT = { primary_culture = nazca } } change_primary_culture = nazca }
		if = { limit = { tag = CHM  NOT = { primary_culture = chimu } } change_primary_culture = chimu }
		if = { limit = { tag = CBC  NOT = { primary_culture = chibcha } } change_primary_culture = chibcha }
		if = { limit = { tag = TEN  NOT = { primary_culture = nahuatl_c } } change_primary_culture = nahuatl_c }
		if = { limit = { tag = TEP  NOT = { primary_culture = tepanec } } change_primary_culture = tepanec }
		if = { limit = { tag = TXL  NOT = { primary_culture = tlaxcallan } } change_primary_culture = tlaxcallan }
		if = { limit = { tag = TPQ  NOT = { primary_culture = chontal } } change_primary_culture = chontal }
		if = { limit = { tag = TOT  NOT = { primary_culture = totonac } } change_primary_culture = totonac }
		if = { limit = { tag = TOC  NOT = { primary_culture = nawa } } change_primary_culture = nawa }
		if = { limit = { tag = MET  NOT = { primary_culture = metztitlani } } change_primary_culture = metztitlani }
		if = { limit = { tag = MIX  NOT = { primary_culture = mixtec } } change_primary_culture = mixtec }
		if = { limit = { tag = ZAP  NOT = { primary_culture = zapotec } } change_primary_culture = zapotec }
		if = { limit = { tag = COY  NOT = { primary_culture = zoque } } change_primary_culture = zoque }
		if = { limit = { tag = MAY  NOT = { primary_culture = yucatecan } } change_primary_culture = yucatecan }
		if = { limit = { tag = ITZ  NOT = { primary_culture = itza } } change_primary_culture = itza }
		if = { limit = { tag = MAA  NOT = { primary_culture = mamean } } change_primary_culture = mamean }
		if = { limit = { tag = QUM  NOT = { primary_culture = quichean } } change_primary_culture = quichean }
		if = { limit = { tag = TEE  NOT = { primary_culture = huastec } } change_primary_culture = huastec }
		if = { limit = { tag = QUI  NOT = { primary_culture = cara } } change_primary_culture = cara }
		if = { limit = { tag = CLM  NOT = { primary_culture = tecos } } change_primary_culture = tecos }
		if = { limit = { tag = MKS  NOT = { primary_culture = bugis } } change_primary_culture = bugis }
		if = { limit = { tag = HAW  NOT = { primary_culture = hawaian } } change_primary_culture = hawaian }
	}
}

remove_obsolete_flags_effect = {
	every_country = {
		limit = {
			exists = no
		}
		if = {
			limit = {
				has_country_modifier = "centralisation_efforts"
			}
			remove_country_modifier = "centralisation_efforts"
			set_variable = { which = Centralisation_Effort_Years value = 0 }
		}
		if = {
			limit = {
				has_country_modifier = "decentralisation_efforts"
			}
			remove_country_modifier = "decentralisation_efforts"
			set_variable = { which = Decentralisation_Effort_Years value = 0 }
		}
		if = {
			limit = {
				has_country_flag = autonomy_garanteed
			}
			clr_country_flag = autonomy_garanteed
		}
		if = {
			limit = {
				has_country_flag = pacta_conventa
			}
			clr_country_flag = pacta_conventa
		}
		if = {
			limit = {
				has_country_flag = pacta_conventa_accepted
			}
			clr_country_flag = pacta_conventa_accepted
		}
		if = {
			limit = {
				has_country_modifier = wrath_of_god
			}
			remove_country_modifier = wrath_of_god
		}
		if = {
			limit = {
				has_country_flag = crusader_kingdom
			}
			clr_country_flag = crusader_kingdom
		}
		if = {
			limit = {
				has_country_flag = erik_s_rebellion
			}
			clr_country_flag = erik_s_rebellion
		}
		if = {
			limit = {
				has_country_modifier = blessing_of_god
			}
			remove_country_modifier = blessing_of_god
		}
		if = {
			limit = {
				has_country_flag = red_turban_reb
				exists = no
			}
			clr_country_flag = red_turban_reb
		}
		if = {
			limit = {
				has_country_flag = lost_mandate_of_heaven
			}
			clr_country_flag = lost_mandate_of_heaven
		}
		if = {
			limit = {
				has_country_flag = horde_sedentarisation_triggered
			}
			clr_country_flag = horde_sedentarisation_triggered
		}
		if = {
			limit = {
				has_country_flag = horde_sedentarisation_underway
			}
			clr_country_flag = horde_sedentarisation_underway
		}
		if = {
			limit = {
				has_country_flag = horde_sedentarisation_over
			}
			clr_country_flag = horde_sedentarisation_over
		}
	}
}