# 1036 - Podzhiversk

culture = chukchi
religion = tengri_pagan_reformed
capital = "Podzhiversk"
trade_goods = unknown
hre = no
base_tax = 1
base_production = 0
base_manpower = 0
native_size = 5
native_ferocity = 1
native_hostileness = 3

500.1.1 = {
	add_permanent_province_modifier = {
		name = "ivory_low"
		duration = -1
	}
}
1648.1.1 = { discovered_by = RUS }
1732.1.1 = {
	owner = RUS
	controller = RUS
	citysize = 350
#  	culture = russian
#  	religion = orthodox
	trade_goods = fish
	set_province_flag = trade_good_set
} # Conquered by Russia
1750.1.1 = { citysize = 870 }
1757.1.1 = { add_core = RUS }
1782.1.1 = { citysize = 1100 }
