# 1077 - Kurgan

owner = BLU
controller = BLU
culture = tartar
religion = tengri_pagan_reformed
capital = "Kurgan"
base_tax = 5
base_production = 0
base_manpower = 0
is_city = yes
trade_goods = wool
discovered_by = steppestech
hre = no

1356.1.1 = {
	add_core = BLU
}
1382.1.1   = {
	owner = GOL
	controller = GOL
	add_core = GOL
	remove_core = BLU
}
1428.1.1 = {
	owner = SHY
	controller = SHY
	add_core = SHY
	remove_core = GOL
}
1468.1.1 = {
	owner = SIB
	controller = SIB
	discovered_by = SIB
	remove_core = SHY
	add_core = SIB
	culture = siberian
} # Sibir Khanate formed from northern Uzbek lands
1515.1.1 = { training_fields = yes }
1585.1.1   = {
	discovered_by = RUS
	owner = RUS
	controller = RUS
	add_core = RUS
	remove_core = SIB
} # Yermak Timofeevich, annexed to Muscovy
1586.1.1 = {
	}
1606.1.1 = { unrest = 3 } # Rebellions against Russia
1608.1.1 = { unrest = 5 }
#1610.1.1 = { unrest = 2 culture = russian religion = orthodox }
1616.1.1 = { unrest = 6 }
1620.1.1 = { unrest = 0 }
1650.1.1 = {
	
   	fort_14th = yes
} # Became an important trade center
1760.1.1 = {  }
