# 1078 - Panigadka

#owner = SKP
#controller = SKP
culture = selkup
religion = tengri_pagan_reformed
capital = "Napas"
trade_goods = lumber
hre = no
base_tax = 1
base_production = 0
base_manpower = 0
is_city = yes
discovered_by = steppestech

#1356.1.1 = {
#	add_core = SKP
#}
1530.1.1 = {
	owner = SIB
	controller = SIB
	add_core = SIB
}
1585.1.1  = {
	discovered_by = RUS
	owner = RUS
	controller = RUS
	add_core = RUS
#	religion = orthodox
#	culture = russian
	capital = "Narym"
} # Yermak Timofeevich
1606.1.1  = { unrest = 3 } # Rebellions
1608.1.1  = { unrest = 5 }
1610.1.1  = { unrest = 2 }
1616.1.1  = { unrest = 6 }
1620.1.1  = { unrest = 0 }
