# 1211 - Al Sahra' Al Sharqiyaa

owner = MAM
controller = MAM
culture = egyptian #beja
religion = sunni
capital = "Al Qusayr"
is_city = yes
base_tax = 1
base_production = 0
base_manpower = 0
trade_goods = fish

hre = no


discovered_by = ADA
discovered_by = ALW
discovered_by = MKU
discovered_by = muslim
discovered_by = turkishtech
discovered_by = western
discovered_by = eastern
discovered_by = indian

500.1.1 = {
	add_permanent_province_modifier = {
		name = "lack_of_harbour"
		duration = -1
	}
}
1204.1.1 = {
	add_permanent_province_modifier = {
		name = arab_tribal_area
		duration = -1
	}
}

1356.1.1 = {
	add_core = MAM
}
1510.1.1 = {
	owner = SEN
	controller = SEN
}
1524.1.1   = {
	owner = TUR
	controller = TUR
	add_core = TUR
	remove_core = MAM
} # Invaded by the Ottomans
1530.1.1   = {
	#owner = MAM
	#controller = MAM
	add_core = MAM
	#remove_core = TUR
}
1530.1.3 = {
	road_network = no paved_road_network = yes 
}
1530.1.5 = {
	owner = MAM
	controller = MAM
}
1531.1.1 = {
	owner = TUR
	controller = TUR
	add_core = TUR
}
1571.1.1 = { unrest = 8 } # Local Beja revolt against Ottoman governors
1572.1.1 = { unrest = 0 } # Ottomans crush Beja revolt
1802.5.13  = {
	controller = TUR
	unrest = 8
} # Turkish rule is restored but a few troublesome years follow
1805.1.1 = {
	unrest = 0
	owner = EGY
	controller = EGY
}
1811.6.1   = {
	owner = TUR
	controller = TUR
} # Order is restored
