owner = NAS
controller = NAS
add_core = NAS
culture = hessian
religion = catholic
hre = yes
base_tax = 10
base_production = 0
trade_goods = wine #linen
base_manpower = 1
is_city = yes
capital = "Saarbrücken"
discovered_by = eastern
discovered_by = western
discovered_by = muslim

500.1.1 = {
	add_permanent_province_modifier = {
		name = urban_goods_linen
		duration = -1
	}
	local_fortification_1 = yes
}

1500.1.1 = { road_network = yes }
1520.5.5 = {
	base_tax = 12
}
1530.1.3 = {
	road_network = no paved_road_network = yes 
}
1575.1.1   = {
	
}
1680.1.1   = {
	owner = FRA
	controller = FRA
	add_core = FRA
}
1697.1.1   = {
	owner = NAS
	controller = NAS
}
1750.1.1   = {
	fort_14th = no fort_15th = yes
}
1775.1.1   = {
	fort_15th = no fort_16th = yes
}
1797.10.17 = {
	owner = FRA
	controller = FRA
} # The Treaty of Campo Formio
1806.7.12  = {
	hre = no
} # The Holy Roman Empire is dissolved
1814.4.6   = {
	owner = PRU
	controller = PRU
	add_core = PRU
	remove_core = FRA
} # Napoleon abdicates
