# 2114 - Margalla

owner = MUL
controller = MUL
culture = pashtun
religion = sunni
capital = "Peshawar" #or just Pindi?
trade_goods = wool
hre = no
base_tax = 23
base_production = 2
base_manpower = 1
is_city = yes
fort_14th = yes
discovered_by = indian
discovered_by = muslim
discovered_by = steppestech 
discovered_by = turkishtech

1100.1.1 = {
	marketplace = yes
	town_hall = yes
}
1115.1.1 = { constable = yes }
1120.1.1 = { textile = yes }
1356.1.1  = {
	add_core = KAB
	add_core = MUL
	add_permanent_province_modifier = {
		name = pashtun_tribal_area
		duration = -1
	}
}
1369.1.1   = {
	owner = TIM
	controller = TIM
}
1444.1.1  = {
	owner = KTD
	controller = KTD
	remove_core = TIM
	remove_core = KAB
	add_core = DUR
	remove_core = MUL
} # Shaybanids break free from the Timurids
1461.1.1 = {
	owner = TIM
	controller = TIM
}
1469.8.27 = {
	owner = DUR
	controller = DUR
}
1507.7.1 = {
	owner = TIM
	controller = TIM
	add_core = TIM
} # Kabul falls to Babur
1511.1.1 = {
	base_tax = 27
	base_production = 5
	base_manpower = 2
}
1526.4.21 = {
	owner = MUG
	controller = MUG
	add_core = MUG
	remove_core = TIM
} #Battle of Panipat
1540.1.1  = { religion = sikhism }
1585.1.1 = {
	controller = MUG
}	# Man Singh occupies Kabulistan after death of Mirza Hakim
1585.2.1 = {
	owner = MUG
} # Annexed into empire again

1672.1.1 = {
	controller = REB
	revolt = { type = nationalist_rebels }
} # Widespread tribal uprisings
1675.1.1 = {
	controller = MUG
	revolt = { }
} # End of uprisings
1677.1.1 = { discovered_by = FRA }
1690.1.1  = { discovered_by = ENG }
1707.5.12 = { discovered_by = GBR }
1737.1.1  = {
	controller = PER
}
1739.5.1  = {
	owner = PER
} # Captured by Persia, Nadir Shah
1747.10.1 = {
	owner = DUR
	controller = DUR
	add_core = DUR
	remove_core = MUG
} # Ahmad Shah established the Durrani empire
