# 2396 - Ngeh Anh
# TM-Smiles indochina-mod for meiou

owner = DAI
controller = DAI
add_core = DAI
culture = vietnamese
religion = mahayana
capital = "Ngeh Anh"

base_tax = 5
base_production = 1
base_manpower = 0
citysize = 20000
trade_goods = fish


discovered_by = DAI
discovered_by = chinese
discovered_by = indian
discovered_by = muslim

hre = no

1000.1.1 = { town_hall = yes }
1356.1.1 = {
	fort_14th = yes
}
1372.1.1 = { controller = CHA }
1390.1.1 = { controller = DAI } 
1407.6.17 = { owner = MNG controller = MNG }
1425.1.1 = { religion = confucianism }
1427.1.1 = { owner = DAI controller = DAI } 
1501.1.1 = {
	base_tax = 7
}
1515.1.1 = { regimental_camp = yes }
1517.2.3 = { bailiff = yes }
1519.4.2 = { wharf = yes }
1522.4.4 = { marketplace = yes }
1535.1.1 = { owner = ANN controller = ANN add_core = ANN } # Rebels return
1545.1.1 = { owner = TOK controller = TOK add_core = TOK } # Restoriationist
1730.1.1 = { unrest = 5 }							# Peasant revolt
1731.1.1 = { unrest = 0 }
1769.1.1 = { unrest = 6 } # Tay Son Rebellion
1776.1.1 = {
	unrest = 0
	owner = DAI
	controller = DAI
	add_core = DAI
} # Tay Son Dynasty conquered the Nguyen Lords
1786.1.1 = { unrest = 5 } # Unsuccessful revolt
1787.1.1 = { unrest = 0 }
1802.7.22 = {
	owner = ANN
	controller = ANN
	remove_core = DAI
} # Nguyen Phuc Anh conquered the Tay Son Dynasty
1883.8.25 = { 
	owner = FRA
	controller = FRA
}
