# 2416 - Tolupan
# GG - 22/07/2008

culture = pech
religion = mesoamerican_religion
capital = "Tehuacan"
trade_goods = unknown
hre = no
base_tax = 9
base_production = 0
base_manpower = 0
native_size = 75
native_ferocity = 4
native_hostileness = 8
discovered_by = mesoamerican

1517.1.1   = {
	discovered_by = SPA
}
1524.1.1   = {
	owner = SPA
	controller = SPA
	citysize = 200
	culture = castillian
	religion = catholic
	is_city = yes
	capital = "Trujillo"
	base_tax = 4
	marketplace = yes
	harbour_infrastructure_1 = yes
	constable = yes	
}
1549.1.1   = {
	add_core = SPA
	citysize = 500
}
1600.1.1   = {
	citysize = 1000
}
1750.1.1   = {
	add_core = MEX
	culture = mexican
}
1810.9.16  = {
	owner = MEX
} # Declaration of Independence
1821.8.24  = {
	controller = MEX
	remove_core = SPA
} # Treaty of Cordba
1823.7.10  = {
	owner = CAM
	controller = CAM
	remove_core = MEX
}
