# 2425 - Pyi
# TM-Smiles indochina-mod for meiou

owner = PRE
controller = PRE
culture = burmese
religion = buddhism
capital = "Pyi"
base_tax = 6
base_production = 2
base_manpower = 0
is_city = yes
trade_goods = pepper
discovered_by = chinese
discovered_by = indian
hre = no
1111.1.1 = {
	urban_infrastructure_1 = yes
	marketplace = yes
}
1250.1.1 = { temple = yes }
1275.1.1 = {
	add_core = PRE
	add_core = PIN
	owner = PRE
	controller = PRE
}
1365.2.26 = {
	remove_core = PIN
	add_core = AVA
}
1501.1.1 = {
	base_tax = 6
	base_production = 3
}
1509.1.1 = { discovered_by = POR }
#1533.1.1 = {
#	owner = MYA
#	controller = MYA
#}
1482.1.1 = {
	remove_core = AVA
}
1542.5.19 = {		#war started 1539
	owner = TAU
	controller = TAU
	add_core = TAU
} # Annexed to the Kingdom of Taungoo
1550.4.30 = {
	owner = PRE
	controller = PRE
}
1551.8.29 = {
	owner = TAU
	controller = TAU
}
1574.1.1 = { owner = AYU controller = AYU } # Siamese occupation
1575.1.1 = { owner = TAU controller = TAU }
1740.1.1 = { controller = REB } # Pegu rebellion
1752.2.28 = {
	owner = PEG
	controller = PEG
	remove_core = TAU
} # Pegu is sacked & returned to Burmese control
1759.1.1 = {
	owner = BRM
	controller = BRM
	add_core = BRM
} # Annexed by Burma
1885.1.1 = {		
	owner = GBR
	controller = GBR
}
