# 2485 - henan_area Liangyuan

owner = CMN
controller = CMN
culture = hanyu
religion = confucianism
capital = "Shangqiu"
trade_goods = tea
hre = no
base_tax = 27
base_production = 2
base_manpower = 2
is_city = yes
discovered_by = steppestech
discovered_by = chinese

0985.1.1 = {
	owner = SNG
	controller = SNG
	add_core = SNG
}
##1111.1.1 = { post_system = yes }
1276.1.1 = {
	owner = YUA
	controller = YUA
	add_core = YUA
}
1320.1.1 = {
	remove_core = SNG
}
1351.1.1 = {
	owner = SNG
	controller = SNG
	add_core = SNG
}
#1356.1.1 = {	remove_core = YUA } # Red Turbans
1368.1.1 = {
	owner = MNG
	controller = MNG
	add_core = MNG
	small_university = yes #  Yingtianfu Academy (One of the 4 Great Academies )
	remove_core = SNG
}
1520.2.2 = {
	base_tax = 38
	base_production = 7
	base_manpower = 3
}
1645.6.25 = {
	owner = QNG
	controller = QNG
	add_core = QNG
} # The Qing Dynasty
#1662.1.1 = {	owner = QNG
#		controller = QNG
#		add_core = QNG
#		remove_core = MNG
#	   } # The Qing Dynasty
1662.1.1 = { remove_core = MNG }
