# 2728 - Kayah
# TM-Smiles indochina-mod for meiou

owner = SST
controller = SST
culture = karen
religion = buddhism
capital = "Loikaw"

base_tax = 2
base_production = 0
base_manpower = 0
citysize = 3200
trade_goods = lumber


discovered_by = chinese
discovered_by = indian

hre = no

1356.1.1 = {
	add_core = SST
}
1500.1.1 = { citysize = 3870 }

1555.1.1 = {
	owner = TAU
	controller = TAU
	add_core = TAU
	remove_core = AVA
	remove_core = PEG
} # The Shan dynasty is overthrown
#1581.1.1 = {
#	owner = SST
#	controller = SST
#	remove_core = TAU
#} # Very loosely controlled
1599.1.1 = { controller = REB }	#Shan states revolt after burmese dinasty's crisis
1600.1.1 = { citysize = 5154 }
1605.1.1 = { controller = TAU }
1650.1.1 = { citysize = 6548 }
1700.1.1 = { citysize = 7000 }
1750.1.1 = { citysize = 7980 }
1752.2.28 = {
	owner = BRM
	controller = BRM
	add_core = BRM
	remove_core = TAU
}
1800.1.1 = { citysize = 8000 }
1875.1.1 = {		
	owner = GBR
	controller = GBR
}
