# 2847 - Hinterpommern-Stargard
owner = POM
controller = POM
add_core = POM
culture = kashubian # pommeranian
religion = catholic
hre = yes
base_tax = 5
base_production = 0
trade_goods = wheat
base_manpower = 0
is_city = yes
capital = "Stargard"
discovered_by = eastern
discovered_by = western
discovered_by = muslim

1295.1.1   = {
	owner = PWO
	controller = PWO
	add_core = PWO
	remove_core = POM
	local_fortification_1 = yes
}
1478.1.1   = {
	owner = POM
	controller = POM
	add_core = POM
	remove_core = PWO
} # Duchy reunited for a short period
1500.1.1 = { road_network = yes }

1529.1.1   = { fort_14th = yes }
1530.1.4  = {
	bailiff = yes	
	culture = pommeranian 
}
1531.1.1   = {
	owner = PWO
	controller = PWO
	add_core = PWO
	remove_core = POM
} # Fifth Partition
1534.1.1   = { religion = protestant culture = pommeranian }


1625.1.1   = {
	owner = POM
	controller = POM
	add_core = POM
	remove_core = PWO
} # Final reunification
1630.1.1   = { unrest = 7 }#Devastating population losses in Thirty Years War
1630.7.10  = {
	owner = SWE
	controller = SWE
	add_core = SWE
} # Treaty of Stettin
1648.10.24 = {
	owner = BRA
	controller = BRA
     	add_core = BRA
	remove_core = SWE
} # Treaty of Westphalia
1701.1.18  = {
	owner = PRU
	controller = PRU
	add_core = PRU
	remove_core = BRA
}
1750.1.1   = { fort_14th = no fort_15th = yes }
1775.1.1   = { fort_15th = no fort_16th = yes }
1806.7.12  = { hre = no } # The Holy Roman Empire is dissolved
