# 2971 - Tingitania

owner = FEZ
controller = FEZ 
culture = fassi
religion = sunni
capital = "Assilah"
base_tax = 4
base_production = 0
base_manpower = 0
is_city = yes
trade_goods = olive
discovered_by = western
discovered_by = muslim
discovered_by = eastern
discovered_by = turkishtech
hre = no

# 1075 = almoravides
# 1149 = almohades

1204.1.1 = {
	add_permanent_province_modifier = {
		name = arab_tribal_area
		duration = -1
	}
}

1274.1.1 = {
	add_core = FEZ
}
1471.1.1 = {
	owner = POR
	controller = POR
	add_core = POR
} # Conquered by the Portuguese
1509.1.1 = {
	fort_14th = yes
} # Torre de Menagem
1530.1.1 = {
	add_core = MOR
}
1530.1.2 = {
	remove_core = FEZ
}
1530.1.3 = {
	road_network = no paved_road_network = yes 
}
1580.1.1 = {
	owner = SPA
	controller = SPA
	add_core = SPA
}
1640.1.1 = {
	owner = POR
	controller = POR
	add_core = POR
}
1661.1.1 = {
	owner = ENG
	controller = ENG
	remove_core = POR
} # Tangier is given to Charles II of England
1662.1.1 = {
	owner = TFL
	controller = TFL
	add_core = TFL
	remove_core = MOR
} # English quickly lose control of most of Tingitania
1668.8.2 = {
	owner = MOR
	controller = MOR
	remove_core = TFL
}
