# No previous file for Al Anbar

owner = JAI
controller = JAI
culture = iraqi
religion = sunni
capital = "Sahiliyah"
trade_goods = wool
hre = no
base_tax = 2
base_production = 0
base_manpower = 0
is_city = yes
add_core = JAI
discovered_by = western
discovered_by = eastern
discovered_by = muslim
discovered_by = turkishtech
discovered_by = steppestech

1204.1.1 = {
	add_permanent_province_modifier = {
		name = arab_tribal_area
		duration = -1
	}
}
1300.1.1 = { road_network = yes }
1356.1.1 = {
	add_core = JAI
	add_core = AKK
}
1401.6.1   = {
	controller = TIM
}
1402.1.1   = {
	controller = JAI
}
1403.1.1   = {
	controller = TIM
}
1405.2.20  = {
	controller = JAI
}
1409.1.1   = {
	add_core = AKK
}
1410.1.1   = {
	controller = QAR
}
1411.1.1   = {
	owner = QAR
}
1444.1.1 = {
	remove_core = JAI
}	
1444.1.1 = {
	add_core = IRQ
	remove_core = QAR
	add_core = AKK
}
1450.1.1  = { citysize = 2770 }
1469.2.4  = {
	owner = AKK
	controller = AKK
	add_core = AKK
	remove_core = QAR
}
1501.1.1   = {
	controller = SAM
	revolt = { }
} # Safawid Expansion
1508.1.1   = {
	owner = SAM
} # Safawid Expansion
1512.1.1  = {
	owner = PER
	controller = PER
	add_core = PER
	remove_core = SAM
	remove_core = QAR
	remove_core = AKK
	training_fields = yes
	bailiff = yes
} # Safawids "form persia"
1515.1.1 = { discovered_by = POR }
1530.1.1 = { add_permanent_claim = TUR } #As Caliph, duty to rescue Baghdad
1530.1.3 = {
	road_network = no paved_road_network = yes 
	courthouse = yes
}
1536.1.1 = {
	owner = TUR
	controller = TUR
	add_core = TUR
	remove_claim = TUR
	remove_core = PER
} # Part of the Ottoman Empire
