# No previous file for Maratha

owner = BAH
controller = BAH
culture = marathi
religion = hinduism
capital = "Jadh"
trade_goods = cotton
hre = no
base_tax = 18
base_production = 0
base_manpower = 1
is_city = yes

discovered_by = indian
discovered_by = muslim

1100.1.1 = { plantations = yes }
1356.1.1  = {
	add_core = BIJ
	add_core = BAH
}
1490.1.1  = {
	owner = BIJ
	controller = BIJ
	remove_core = BAH
} # The Breakup of the Bahmani sultanate
1511.1.1 = {
	base_tax = 23
}
1530.3.17 = {
	bailiff = yes
	marketplace = yes
	road_network = yes
}
1550.1.1  = { fort_14th = yes }
1600.1.1  = { discovered_by = turkishtech }
1650.1.1  = {  add_core = MAR }
1687.1.1  = {
	owner = MUG
	controller = MUG
	add_core = MUG
	
} # Conquered by the mughal emperor Aurangzeb
1700.1.1  = {  }
1707.5.12 = { discovered_by = GBR }
1712.1.1  = { add_core = HYD }
1724.1.1  = {
	owner = HYD
	controller = HYD
}
1760.1.1  = {
	owner = MAR
	controller = MAR
	remove_core = MUG
} # battle of Kharda
1810.1.1  = {
	add_core = MAR
}
