# 3428 - Chumpivilca

culture = quechuan
religion = inti
capital = "Chumpivilca"
trade_goods = unknown
hre = no
base_tax = 7
base_production = 0
base_manpower = 0
native_size = 20
native_ferocity = 1
native_hostileness = 8
discovered_by = south_american

1356.1.1 = {
	owner = CZC
	add_core = CZC
}
1463.1.1   = {
	owner = CZC
	controller = CZC
	add_core = CZC
}
1480.1.1   = {
	owner = INC
	controller = INC
	add_core = INC
	remove_core = CZC
	trade_goods = maize
	is_city = yes
	paved_road_network = yes
	bailiff = yes
	constable = yes
	marketplace = yes
}
1501.1.1 = {
	base_tax = 2
	native_size = 5
}
1529.1.1 = {
	owner = CZC
	controller = CZC
	add_core = QUI
	add_core = CZC
	remove_core = INC
}
1535.1.1  = {
	discovered_by = SPA
	add_core = SPA
	owner = SPA
	controller = SPA
	religion = catholic
	culture = castillian
}
1750.1.1  = {
	add_core = PEU
	culture = peruvian
}
1810.9.18  = {
	owner = PEU
	controller = PEU
}
1818.2.12  = {
	remove_core = SPA
}
