# No previous file for Kendal

owner = MPH
controller = MPH
culture = javan
religion = hinduism		#FB this region began to be Islamified c1300
capital = "Kendal"
trade_goods = rice
hre = no
base_tax = 16
base_production = 2
base_manpower = 1
is_city = yes
add_core = MPH
discovered_by = chinese
discovered_by = indian
discovered_by = austranesian

1111.1.1 = {
	harbour_infrastructure_1 = yes
	marketplace = yes
	town_hall = yes
}
1400.1.1 = { citysize = 28890 religion = sunni }
1450.1.1 = { citysize = 32000 }
1490.1.1 = {
	owner = DEM
	controller = DEM
	add_core = DEM
	discovered_by = CBT
}
#exact date Demak could be said to be the dominant city in this province is uncertain
#1478 is based on MC Ricklefs "A History of Modern Indonesia"
1501.1.1 = {
	base_tax = 20
	base_production = 3
}
1512.1.1 = { discovered_by = POR }	#FB Antonio de Abreu
1515.2.1 = { training_fields = yes }
1599.1.1 = { discovered_by = NED }	#FB
1625.1.1 = {
	owner = MTR
	controller = MTR
	add_core = MTR
	add_core = CBT
	remove_core = MPH
	remove_core = DEM
	unrest = 2
}
1650.1.1 = { unrest = 1 }
1676.10.15 = { controller = REB } #rebels defeat Mataram army at Gogodog
1677.7.13 = {
	controller = MTR
	unrest = 2
} # Amangkurat's death
#after 1680 MTR had little real control in this province
1700.1.1 = { unrest = 1 }
1717.1.1 = { controller = REB } #Surabaya rebellion/2nd war of Javanese Succession
1721.1.1 = { controller = MTR unrest = 2 }
1743.11.1 = {
	owner = NED
	controller = NED
	unrest = 1
}
1750.1.1 = { trade_goods = sugar}
1800.1.1 = { add_core = NED unrest = 0 }
1811.9.1 = {
	owner = GBR
	controller = GBR
} # British take over
1816.1.1 = { owner = NED controller = NED } # Returned to the Dutch
