# 4110 - Kharkov

owner = WHI
controller = WHI
culture = crimean
religion = sunni	
capital = "Kharkov"
base_tax = 15
base_production = 0
base_manpower = 1
is_city = yes
trade_goods = wheat
discovered_by = eastern
discovered_by = western
discovered_by = steppestech
discovered_by = turkishtech
discovered_by = muslim
hre = no

1356.1.1 = {
	add_core = WHI
	add_core = CRI
}
1382.1.1   = {
	add_core = GOL
	owner = GOL
	controller = GOL
	remove_core = WHI
}
1427.1.1 = {
	owner = LIT
	controller = LIT
	add_core = LIT
	remove_core = GOL
}
#1503.3.21  = { owner = MOS controller = MOS add_core = MOS }
1501.1.1 = {
	base_tax = 19
}
1530.1.1 = {
	#owner = CRI
	#controller = CRI
	religion = orthodox
	culture = ukrainian	
}
1547.1.1  = {
	owner = RUS
	controller = RUS
	add_core = RUS
	remove_core = MOS
} # Ivan Grozny becomes the first Tsar of Russia
1709.7.8  = { unrest = 6 } # Persecuted by the Russians after Zaporizhia became an ally of Hetman
1734.1.1  = { unrest = 0 }
1768.1.1  = { unrest = 8 } # Kolivshchyna rebellion, peasant uprising
1769.1.1  = { unrest = 0 } # Suppressed by Polish and Russian troops
1773.1.1  = { unrest = 5 } # Emelian Pugachev, Cossack insurrection
1774.9.14 = { unrest = 0 } # Pugachev is captured
