# 4113 - Bokey

owner = BLU
controller = BLU
culture = tartar 
religion = sunni
capital = "Bokey"
base_tax = 4
base_production = 0
base_manpower = 0
is_city = yes
trade_goods = wool
discovered_by = muslim
discovered_by = steppestech
discovered_by = turkishtech
hre = no

1356.1.1 = {
	#add_core = KZH
	add_core = BLU
}
1382.1.1   = {
	owner = GOL
	controller = GOL
	add_core = GOL
	remove_core = BLU
}
1419.1.1 = {
	owner = NOG
	controller = NOG
	culture = nogai
	add_core = NOG
}
1444.1.1 = {
	remove_core = GOL
}
1520.1.1  = {
	owner = KZH
	controller = KZH
	add_core = KZH
	culture = khazak
	remove_core = NOG
} # Qasim Khan conquers Nogai lands
1521.1.1 = { base_tax = 5 }
1630.1.1   = {
	owner = OIR
	controller = OIR
	add_core = OIR
	culture = oirats
	religion = vajrayana
} # Kalmyks migrate to Volga