# 424 - Shirvan

owner = SHI
controller = SHI
culture = azerbadjani
religion = sunni
capital = "Shamakhi"
trade_goods = wool
hre = no
base_tax = 1
base_production = 0
base_manpower = 0
is_city = yes
discovered_by = western
discovered_by = muslim
discovered_by = eastern
discovered_by = steppestech
discovered_by = turkishtech

1250.1.1 = { temple = yes }

1356.1.1 = {
	add_core = SHI
}
1467.1.1 = {
	controller = AKK
}
1470.1.1 = {
#	owner = AKK
#	add_core = AKK
#	remove_core = QAR
	controller = SHI
}
1501.1.1 = {
	religion = shiite
	unrest = 5
} # The population is forcibly converted, creating internal conflict in the country
1504.1.1 = {
	remove_core = TIM
	add_permanent_claim = PER
}
1538.1.1 = {
	owner = PER
	controller = PER
	add_core = PER
	unrest = 1
} # Weakened by internal conflicts, Shirvan is an easy prey for the Shah
1590.3.21  = {
	owner = TUR
	controller = TUR
	add_core = TUR
} # Peace of Istanbul
1607.6.16 = {
	controller = PER
} # Persian reconquest
1612.11.20 = {
	owner = PER
	remove_core = TUR
} # Part of Persia
1700.1.1 = {
	unrest = 5
}
1721.10.22 = {
	controller = RUS
}
1732.1.1 = {
	controller = PER
}
1747.1.1   = {
	unrest = 3
} # Shah Nadir is killed, local khanates emerged
1748.1.1 = {
	owner = SHI
	controller = SHI
}
1779.1.1   = {
	unrest = 0
} # With the Qajar dynasty the situation stabilized
1813.10.24 = {
	owner = RUS
	controller = RUS
	add_core = RUS
	remove_core = PER
} # The Treaty of Gulistan
