# 490 - Ayiti

culture = arawak
religion = pantheism
capital = "Ayiti"
trade_goods = unknown
hre = no
base_tax = 12
base_production = 0
#base_manpower = 0.5
base_manpower = 0
native_size = 70
native_ferocity = 1
native_hostileness = 2

1492.12.5 = {
	discovered_by = CAS
	owner = CAS
	controller = CAS
	culture = castillian
	religion = catholic
	citysize = 350
	trade_goods = sugar
	set_province_flag = trade_good_set
} # Christopher Columbus's arrival
#1498.1.1  = {
#	capital = "Santo Domingo"
#} # Founded by Bartolomeo Columbus
1499.1.1  = {
	unrest = 6
} # Unrest and discontent among the settlers/Columbus's failure to deliver
1500.1.1  = {
	citysize = 5900
	unrest = 0
} # African slaves brought in for labor. Bobadilla arrives & Columbus is sent back to Spain
1516.1.23 = {
	discovered_by = SPA
	owner = SPA
	controller = SPA
}
1517.12.5 = {
	add_core = SPA
}
1525.1.1 = {
	base_tax = 2
}
1550.1.1  = {
	citysize = 5587
}
1562.1.1  = {
	citysize = 4970
} # Earthquake 
1586.1.1  = {
	citysize = 3500
} # Santo Domingo was sacked by English buccaners
1600.1.1  = {
	citysize = 4218
}
1650.1.1  = {
	citysize = 5340
	
}
1700.1.1  = {
	citysize = 5900
	culture = caribean
}
1750.1.1  = {
	citysize = 6400
}
1800.1.1  = {
	citysize = 6700
}
