# No previous file for Etah

owner = DLH
controller = DLH
culture = kanauji
religion = hinduism
capital = "Etah"
trade_goods = indigo
hre = no
base_tax = 52
base_production = 0
base_manpower = 5
is_city = yes
discovered_by = indian
discovered_by = muslim
discovered_by = turkishtech
discovered_by = steppestech


1200.1.1 = { road_network = yes }
1356.1.1   = {
	add_core = DLH
	add_core = AHM
}
1437.1.1   = {
	owner = AHM
	controller = AHM
}
1444.1.1 = {
	add_core = DLH
}
1452.1.1   = {
	owner = DLH
	controller = DLH
}
1511.1.1 = {
	base_tax = 67
}
1517.11.21 = { unrest = 8 } #Afghan factionalism
1526.4.1   = {
	controller = TIM
	unrest = 0
} #Conquered by Babur
1526.4.21  = {
	owner = MUG
	controller = MUG
	add_core = MUG
	remove_core = DLH
	training_fields = yes
} # Battle of Panipat
1530.1.1 = { add_core = TRT }
1540.1.1   = {
	owner = BNG
	controller = BNG
	add_core = BNG
} # Sher Shah Conquers Delhi
1553.1.1   = {
	owner = DLH
	controller = DLH
	remove_core = BNG
} #Death of Islam Shah Sur, Suri empire split
1555.7.23  = {
	owner = MUG
	controller = MUG
} # Humayun Returns
1556.10.7  = { controller = DLH }	# Hemu
1556.11.5  = { controller = MUG }	#Aftermath to second battle of Panipat
#1571.1.1   = { capital = "Fatehpur Sikri" temple = yes } #Jama Masjid Fatehpur Sikri
#1585.1.1   = { capital = "Akbarabad" }
1622.6.1   = {
	revolt = {
		type = pretender_rebels
		size = 3
		name = "Khurrams Faction"
		leader = "Shah Jahan Timurid"
	}
} #Should be named Khurram at this point
1622.7.1   = { revolt = { } } #Defeated and flees south to Malwa
#1631.1.1  = { } # Taj Mahal
#1636.1.1 #See above
1650.1.1   = { fort_14th = yes }
1658.5.29  = {
	controller = REB
	revolt = {
		type = pretender_rebels
		size = 5
		name = "Aurangzeb's Faction"
		leader = "Aurangzeb Alamgir Timurid"
	}
} # Battle of Samugarh, Aurangzeb defeats the army of Dara Shukoh
1658.6.8   = { controller = MUG revolt = { } } #Shah Jahan surrenders and becomes the prisoner of his son Aurangzeb
1669.1.1   = { unrest = 6 } # The Jats revolted against Aurangzeb's rule
1670.1.1   = { unrest = 0 }
1685.1.1   = { unrest = 6 }	#Jat raids and inroads. The road south from Agra entirely cut of for much of the time. Imperial trade disrupted
1690.1.1   = { discovered_by = ENG }
1691.1.1   = { unrest = 0 }
1707.3.1   = {
	controller = REB
	revolt = {
		type = pretender_rebels
		size = 4
		leader = "Muhammad Azam Shah Timurid"
	}
} #Pretender
1707.5.12  = { discovered_by = GBR }
1707.6.13  = {
	controller = MUG
	revolt = {  }
} #Pretender beaten
1714.1.1   = {
	owner = ALR
	controller = ALR
	add_core = ALR
	remove_core = MUG
} # Jagir granted to the Jats
1784.1.1   = {
	owner = GWA
	controller = GWA
	#capital = "Agra"
} # The Marathas
1803.1.1   = {
	owner = GBR
	controller = GBR
	add_core = GBR
}
