# 5415 - jiangsu_area changxing

owner = MNG
controller = MNG
culture = wuhan
religion = confucianism
capital = "Yixing"
trade_goods = rice #chinaware
hre = no
base_tax = 52
base_production = 0
base_manpower = 2
is_city = yes
discovered_by = chinese
discovered_by = steppestech

1000.1.1 = {
	bailiff = yes 
	paved_road_network = yes
	temple = yes 
}
1276.1.1 = {
	owner = YUA
	controller = YUA
	add_core = YUA
}
1351.1.1  = {
	owner = MNG
	controller = MNG
    add_core = MNG
}	

1369.3.17 = { 
	owner = MNG
	controller = MNG
	add_core = MNG
}
1520.2.2 = {
	base_tax = 81
	base_manpower = 4
}
1645.6.25 = {
	owner = QNG
	controller = QNG
	add_core = QNG
} # The Qing Dynasty

1662.1.1 = { remove_core = MNG }
