# 5419 yongchun

owner = CMN
controller = CMN
culture = minyu
religion = confucianism
capital = "Dehua"
trade_goods = lumber
hre = no
base_tax = 27
base_production = 0
base_manpower = 1
is_city = yes

discovered_by = chinese
discovered_by = steppestech

0985.1.1 = {
	owner = SNG
	controller = SNG
	add_core = SNG
}
1279.1.1 = {
	owner = YUA
	controller = YUA
	add_core = YUA
}
1315.1.1 = {	#Viceroy of Fujian
	owner = CMN
	controller = CMN
	add_core = CMN
}
1320.1.1 = {
	remove_core = SNG
	add_core = CEN
}
#1356.1.1 = {	remove_core = YUA } # Red Turbans
1368.1.1 = {
	owner = MNG
	controller = MNG
	add_core = MNG
	remove_core = CEN
	remove_core = CMN
	remove_core = YUA
}
1520.2.2 = {
	base_tax = 41
	base_manpower = 3
}
1662.1.1 = {
	owner = CMN
	controller = CMN
	add_core = CMN
	remove_core = MNG
}# Geng Jingzhong appointed as viceroy
#1662.1.1 = {
#	owner = QNG
#	controller = QNG
#	add_core = QNG
#	remove_core = MNG
#} # The Qing Dynasty
1673.11.1 = {
	add_core = QNG
} # Wu Sangui revolt, core given to Qing for reconquering
1680.10.1 = {
	owner = QNG
	controller = QNG
	remove_core = CMN
}
