# 5476 Pingdingshan

owner = CYU
controller = CYU
culture = hanyu
religion = confucianism
capital = "Pingdingshan" 
trade_goods = wheat
hre = no
base_tax = 14
base_production = 0
base_manpower = 0
is_city = yes




discovered_by = chinese
discovered_by = steppestech

1000.1.1 = {
	bailiff = yes 
	paved_road_network = yes
	temple = yes 
}
1276.1.1 = {
	owner = YUA
	controller = YUA
	add_core = YUA
}

1351.1.1  = {
	owner = CYU
	controller = SNG
    add_core = CYU
}		

1369.3.17 = { 
	owner = MNG
	controller = MNG
	add_core = MNG
	remove_core = CYU
	remove_core = YUA
}
1520.2.2 = {
	base_tax = 20
	base_manpower = 1
}
1645.6.25 = {
	owner = QNG
	controller = QNG
	add_core = QNG
} # The Qing Dynasty

1662.1.1 = { remove_core = MNG }
