# 601 - Sukhothai
# TM-Smiles indochina-mod for meiou

owner = SUK
controller = SUK
add_core = SUK
culture = thai
religion = buddhism
capital = "Sukhothai"

base_tax = 3
base_production = 3
base_manpower = 0
citysize = 25000
trade_goods = rice
hre = no
discovered_by = chinese
discovered_by = indian

1100.1.1 = {
	marketplace = yes
	urban_infrastructure_2 = yes
	workshop = yes
}


1438.1.1 = {
	owner = AYU
	controller = AYU
    	add_core = AYU
	remove_core = SUK
}
1500.1.1 = { citysize = 30000 }
1501.1.1 = {
	base_tax = 5
	base_production = 3
	base_manpower = 1
}
1550.1.1 = { citysize = 30000 }
1564.2.1 = { add_core = TAU citysize = 16500 } # Burmese vassal
1584.5.3 = { remove_core = TAU }
1600.1.1 = { citysize = 19600 }
1650.1.1 = { citysize = 21340 }
1700.1.1 = { citysize = 23830 }
1750.1.1 = { citysize = 26000 }
1767.4.1 = { unrest = 7 } # The fall of Ayutthaya
1767.4.8 = {
	owner = SIA
	controller = SIA
    	add_core = SIA
	remove_core = AYU
	unrest = 0
}
1800.1.1 = { citysize = 28753 }

