#################
# Religious CBs #
#################

cb_holy_war_cleric = {
	war_goal = take_border

	is_triggered_only = yes
}

cb_holy_war_defensive = {
	war_goal = take_province_religion

	is_triggered_only = yes # See cb_types.2
	valid_for_subject = no

	months = 12000

	prerequisites = {
		OR = {
			AND = {
				piety = -0.60
				OR = {
					cb_on_religious_enemies = yes
					patriarch_authority = 0.75
				}
			}
			AND = {
				cb_on_religious_enemies = yes
				patriarch_authority = 0.75
			}
		}
		NOT = { religion_group = FROM }
		FROM = {
			any_owned_province = {
				religion = ROOT
			}
		}
		OR = {
			NOT = {
				border_distance = {
					who = FROM
					distance = 80
				}
			}
			AND = {
				piety = -0.20
				NOT = {
					border_distance = {
						who = FROM
						distance = 160
					}
				}
			}
			AND = {
				piety = 0.20
				NOT = {
					border_distance = {
						who = FROM
						distance = 240
					}
				}
			}
			AND = {
				piety = 0.60
				NOT = {
					border_distance = {
						who = FROM
						distance = 320
					}
				}
			}
			AND = {
				piety = 1.00
				NOT = {
					border_distance = {
						who = FROM
						distance = 400
					}
				}
			}
		}
		OR = {
			ai = no
			NOT = { has_country_flag = great_predator }
		}
	}
}

cb_holy_war_offensive = {
	war_goal = superiority_crusade

	is_triggered_only = yes # See cb_types.2
	valid_for_subject = no

	months = 12000

	prerequisites = {
		OR = {
			cb_on_religious_enemies = yes
			patriarch_authority = 0.75
			AND = {
				has_global_flag = orthodox_pentarchy_restored
				owns = 2530
				OR = {
					religion = orthodox
					religion = coptic
				}
				FROM = { religion = catholic }
			}
		}
		OR = {
			piety = -0.20
			AND = {
				cb_on_religious_enemies = yes
				patriarch_authority = 0.75
				piety = -0.60
			}
		}
		OR = {
			cb_on_religious_enemies = yes
			NOT = {
				OR = {
					religion = catholic #Covered by crusades
					religion = sunni #Covered by jihads
					religion = shiite #Covered by jihads
				}
			}
		}
		NOT = { religion_group = FROM }
		OR = {
			is_neighbor_of = FROM
			NOT = {
				border_distance = {
					who = FROM
					distance = 80
				}
			}
		}
		OR = {
			ai = no
			NOT = { has_country_flag = great_predator }
		}
	}
}

cb_holy_war_heretic_defensive = {
	war_goal = take_province_religion

	is_triggered_only = yes # See cb_types.2
	valid_for_subject = no

	months = 12000

	prerequisites = {
		OR = {
			cb_on_religious_enemies = yes
			patriarch_authority = 0.75
		}
		religion_group = FROM
		NOT = { religion = FROM }
		OR = {
			piety = 0.20
			AND = {
				cb_on_religious_enemies = yes
				patriarch_authority = 0.75
				piety = -0.20
			}
		}
		FROM = {
			any_owned_province = {
				religion = ROOT
			}
		}
		OR = {
			is_neighbor_of = FROM
			NOT = {
				border_distance = {
					who = FROM
					distance = 80
				}
			}
			AND = {
				piety = 0.60
				NOT = {
					border_distance = {
						who = FROM
						distance = 160
					}
				}
			}
			AND = {
				piety = 1.00
				NOT = {
					border_distance = {
						who = FROM
						distance = 240
					}
				}
			}
		}
		OR = {
			ai = no
			NOT = { has_country_flag = great_predator }
		}
	}
}

cb_holy_war_heretic_offensive = {
	war_goal = superiority_heretic

	is_triggered_only = yes # See cb_types.2
	valid_for_subject = no

	months = 12000

	prerequisites = {
		OR = {
			cb_on_religious_enemies = yes
			patriarch_authority = 0.75
		}
		OR = {
			piety = 0.60
			AND = {
				cb_on_religious_enemies = yes
				patriarch_authority = 0.75
				piety = 0.20
			}
		}
		religion_group = FROM
		NOT = { religion = FROM }
		OR = {
			is_neighbor_of = FROM
			NOT = {
				border_distance = {
					who = FROM
					distance = 80
				}
			}
		}
		OR = {
			ai = no
			NOT = { has_country_flag = great_predator }
		}
	}
}

cb_holy_war_vengeance = {
	war_goal = superiority_crusade

	is_triggered_only = yes
	valid_for_subject = no
}

cb_fidei_defensor = {
	war_goal = defend_country_faith

	is_triggered_only = yes # See cb_types.2
	valid_for_subject = no

	months = 12000

	prerequisites = {
		is_defender_of_faith = yes
		piety = -0.20
		NOT = { religion = FROM }
		any_known_country = {
			religion = ROOT
			war_with = FROM
		}
		OR = {
			is_neighbor_of = FROM
			NOT = {
				border_distance = {
					who = FROM
					distance = 200
				}
			}
			AND = {
				piety = 0.20
				NOT = {
					border_distance = {
						who = FROM
						distance = 400
					}
				}
			}
			AND = {
				piety = 0.60
				NOT = {
					border_distance = {
						who = FROM
						distance = 600
					}
				}
			}
			AND = {
				OR = {
					piety = 1.00
					cb_on_religious_enemies = yes
				}
				NOT = {
					border_distance = {
						who = FROM
						distance = 800
					}
				}
			}
		}
		OR = {
			ai = no
			NOT = { has_country_flag = great_predator }
		}
	}

	attacker_disabled_po = {
		po_demand_provinces
		po_annex
		po_form_personal_union
		po_change_government
		po_change_religion
		po_become_vassal
		po_become_tributary_state
	}
}

cb_holy_war_heresy = {
	war_goal = superiority_heretic

	valid_for_subject = no

	prerequisites = {
		cb_on_religious_enemies = yes
		religion_group = FROM
		NOT = { religion = FROM }
		is_neighbor_of = FROM
		FROM = {
			any_owned_province = {
				religion = ROOT
			}
		}
		OR = {
			ai = no
			NOT = { has_country_flag = great_predator }
		}
	}
}

cb_schism = {
	war_goal = force_pope_to_resign

	is_triggered_only = yes # See cb_types.1
	valid_for_subject = no

	months = 12000

	prerequisites = {
		has_global_flag = catholic_schism
		religion = catholic
		OR = {
			AND = {
				FROM = { tag = PAP }
				has_country_flag = support_antipope
			}
			AND = {
				FROM = { tag = AVI }
				has_country_flag = support_roman_pope
			}
		}
		OR = {
			piety = 0.20
			is_defender_of_faith = yes
			is_papal_controller = yes
			has_country_flag = sponsored_antipope
		}
		OR = {
			ai = no
			NOT = { has_country_flag = great_predator }
		}
	}

	attacker_disabled_po = {
		po_demand_provinces
		po_annex
		po_form_personal_union
		po_change_government
		po_change_religion
		po_release_vassals
		po_release_annexed
		po_gold
		po_annul_treaties
	}
}

#################
# Christian CBs #
#################

cb_catholic_crusade = {
	war_goal = superiority_crusade

	is_triggered_only = yes # See cb_types.2
	valid_for_subject = no

	months = 12000

	prerequisites = {
		FROM = {
			has_country_flag = crusade_target
			NOT = { religion = catholic }
		}
		religion = catholic
		piety = -0.20
		NOT = { has_country_flag = excommunicated }
		PAP = {
			check_variable = {
				which = papal_authority
				value = 200
			}
		}
		OR = {
			is_papal_controller = yes
			is_neighbor_of = FROM
			AND = {
				OR = {
					PAP = {
						check_variable = {
							which = papal_authority
							value = 300
						}
					}
					AND = {
						piety = 0.20
						PAP = {
							check_variable = {
								which = papal_authority
								value = 200
							}
						}
					}
				}
				NOT = {
					border_distance = {
						who = FROM
						distance = 100
					}
				}
			}
			AND = {
				OR = {
					PAP = {
						check_variable = {
							which = papal_authority
							value = 400
						}
					}
					AND = {
						piety = 0.60
						PAP = {
							check_variable = {
								which = papal_authority
								value = 300
							}
						}
					}
				}
				NOT = {
					border_distance = {
						who = FROM
						distance = 200
					}
				}
			}
			AND = {
				OR = {
					PAP = {
						check_variable = {
							which = papal_authority
							value = 500
						}
					}
					AND = {
						piety = 1.00
						PAP = {
							check_variable = {
								which = papal_authority
								value = 400
							}
						}
					}
				}
				NOT = {
					border_distance = {
						who = FROM
						distance = 300
					}
				}
			}
		}
		OR = {
			ai = no
			NOT = { has_country_flag = great_predator }
		}
	}
}

cb_excommunication = {
	war_goal = take_province_excommunication

	is_triggered_only = yes # See cb_types.1
	valid_for_subject = no

	months = 12000

	prerequisites = {
		FROM = {
			OR = {
				is_excommunicated = yes
				has_country_flag = excommunicated
			}
			religion = catholic
		}
		religion = catholic
		piety = -0.20
		OR = {
			is_neighbor_of = FROM
			claim = FROM
			core_claim = FROM
		}
		PAP = {
			check_variable = {
				which = papal_authority
				value = 300
			}
		}
		NOT = {
			OR = {
				is_excommunicated = yes
				has_country_flag = excommunicated
			}
		}
		OR = {
			ai = no
			NOT = { has_country_flag = great_predator }
		}
	}
}

cb_religious_league_minor = {
	war_goal = superiority_religious_league_minor

	ai_peace_desire = -30
	is_triggered_only = yes # See cb_types.1
	league = yes
	valid_for_subject = no

	months = 12000

	prerequisites = {
		has_dlc = "Art of War"
		FROM = {
			is_emperor = yes
			is_in_league_war = no
		}
		is_in_league_war = no
		is_league_leader = yes
		is_league_enemy = FROM
		OR = {
			ai = no
			NOT = { has_country_flag = great_predator }
		}
		is_revolution_target = no
	}

	attacker_disabled_po = {
		po_demand_provinces
		po_annex
		po_change_government
		po_release_annexed
	}
}

##############
# Muslim CBs #
##############

cb_jihad_cleric = {
	war_goal = take_border

	is_triggered_only = yes
	valid_for_subject = no
}

cb_rival_caliph = {
	war_goal = humiliate

	is_triggered_only = yes # See cb_types.1
	valid_for_subject = no

	months = 12000

	prerequisites = {
		has_country_flag = caliph
		religion_group = muslim
		FROM = {
			has_country_flag = caliph
			religion_group = muslim
		}
		OR = {
			is_neighbor_of = FROM
			FROM = {
				NOT = { religion = ROOT }
				culture_group = ROOT
			}
			is_rival = FROM
			check_variable = {
				which = caliph_authority
				value = 26
			}
			NOT = {
				capital_distance = {
					who = FROM
					distance = 500
				}
			}
		}
		OR = {
			ai = no
			NOT = { has_country_flag = great_predator }
		}
	}

	attacker_disabled_po = {
		po_change_government
		po_change_religion
		po_release_vassals
		po_release_annexed
		po_annul_treaties
	}
}

cb_claim_caliph = {
	war_goal = take_caliph

	is_triggered_only = yes # See cb_types.1
	valid_for_subject = no

	months = 12000

	prerequisites = {
		FROM = {
			has_country_flag = caliph
			religion_group = muslim
			NOT = {
				AND = {
					army_size = ROOT
					num_of_cities = ROOT
				}
			}
		}
		religion_group = muslim
		piety = -0.20
		is_neighbor_of = FROM
		NOT = { has_country_flag = caliph }
		OR = {
			ai = no
			NOT = { has_country_flag = great_predator }
		}
	}
}

#############
# Pagan CBs #
#############

cb_flower_war = {
	war_goal = take_prisoners # special - should give high prestige from battles, high cost to annex provinces/countries.

	is_triggered_only = yes # See cb_types.1
	valid_for_subject = no

	months = 12000

	prerequisites = {
		religion = nahuatl
		is_neighbor_of = FROM
		FROM = {
			OR = {
				is_enemy = ROOT
				num_of_cities = ROOT # More powerful than you
				army_size = ROOT # More powerful than you
				# Surrounded by you
				NOT = {
					calc_true_if = {
						amount = 2

						all_neighbor_country = {
							always = yes
						}
					}
				}
			}
		}
		OR = {
			ai = no
			NOT = { has_country_flag = great_predator }
		}
	}
}

cb_lost_icon = {
	war_goal = take_prisoners

	is_triggered_only = yes
	valid_for_subject = no
}

#####################
# Succession Crises #
#####################

cb_foreign_pretender = {
	war_goal = take_capital_vassalize

	is_triggered_only = yes

	attacker_disabled_po = {
		po_demand_provinces
		po_annex
		po_form_personal_union
		po_change_government
		po_change_religion
	}
}

cb_reunion = {
	war_goal = reunify_country

	is_triggered_only = yes

	attacker_disabled_po = {
		po_demand_provinces
		po_change_government
		po_change_religion
	}
}

#############
# Other CBs #
#############

cb_annulment = {
	war_goal = take_capital_throne_annulment

	is_triggered_only = yes

	attacker_disabled_po = {
		po_form_personal_union
	}
}

cb_religious_independence = {
	war_goal = defend_capital_religious_independence

	independence = yes
	is_triggered_only = yes
}
