defined_text = {
	name = GetEstateBurghersLoyalty

	text = {
		localisation_key = estate_loyalty_disloyal_zero

		trigger = {
			# exactly 0% loyalty
			NOT = {
				check_variable = {
					which = estate_burghers_loyalty
					value = 0.001
				}
			}
		}
	}

	text = {
		localisation_key = estate_city_burghers_loyalty_disloyal

		trigger = {
			# at least 1% loyalty
			check_variable = {
				which = estate_burghers_loyalty
				value = 0.001
			}

			# less or equal 30% loyalty
			NOT = {
				check_variable = {
					which = estate_burghers_loyalty
					value = 0.31
				}
			}
		}
	}

	text = {
		localisation_key = estate_city_burghers_loyalty_loyal

		trigger = {
			# at least 31% loyalty
			check_variable = {
				which = estate_burghers_loyalty
				value = 0.31
			}
		}
	}
}

defined_text = {
	name = GetEstateGreaterNoblesLoyalty

	text = {
		localisation_key = estate_loyalty_disloyal_zero

		trigger = {
			# exactly 0% loyalty
			NOT = {
				check_variable = {
					which = estate_greater_nobles_loyalty
					value = 0.001
				}
			}
		}
	}

	text = {
		localisation_key = estate_greater_nobles_loyalty_disloyal

		trigger = {
			# at least 1% loyalty
			check_variable = {
				which = estate_greater_nobles_loyalty
				value = 0.001
			}

			# less or equal 30% loyalty
			NOT = {
				check_variable = {
					which = estate_greater_nobles_loyalty
					value = 0.31
				}
			}
		}
	}

	text = {
		localisation_key = estate_greater_nobles_loyalty_loyal

		trigger = {
			# at least 31% loyalty
			check_variable = {
				which = estate_greater_nobles_loyalty
				value = 0.31
			}
		}
	}
}

defined_text = {
	name = GetEstateLesserNoblesLoyalty

	text = {
		localisation_key = estate_loyalty_disloyal_zero

		trigger = {
			# exactly 0% loyalty
			NOT = {
				check_variable = {
					which = estate_lesser_nobles_loyalty
					value = 0.001
				}
			}
		}
	}

	text = {
		localisation_key = estate_lesser_nobles_loyalty_disloyal

		trigger = {
			# at least 1% loyalty
			check_variable = {
				which = estate_lesser_nobles_loyalty
				value = 0.001
			}

			# less or equal 30% loyalty
			NOT = {
				check_variable = {
					which = estate_lesser_nobles_loyalty
					value = 0.31
				}
			}
		}
	}

	text = {
		localisation_key = estate_lesser_nobles_loyalty_loyal

		trigger = {
			# at least 31% loyalty
			check_variable = {
				which = estate_lesser_nobles_loyalty
				value = 0.31
			}
		}
	}
}

defined_text = {
	name = GetEstateStateInfluence

	text = {
		localisation_key = estate_influence_zero

		trigger = {
			is_variable_equal = {
				which = estate_bureaucracy_weight_share
				value = 0
			}
		}
	}

	text = {
		localisation_key = estate_bureaucracy_influence

		trigger = {
			check_variable = {
				which = estate_bureaucracy_weight_share
				value = 0.001
			}
		}
	}
}

defined_text = {
	name = GetEstateLesserNoblesInfluence

	text = {
		localisation_key = estate_influence_zero

		trigger = {
			is_variable_equal = {
				which = estate_lesser_nobles_weight_share
				value = 0
			}
		}
	}

	text = {
		localisation_key = estate_lesser_nobles_influence

		trigger = {
			check_variable = {
				which = estate_lesser_nobles_weight_share
				value = 0.001
			}
		}
	}
}

defined_text = {
	name = GetEstateGreaterNoblesInfluence

	text = {
		localisation_key = estate_influence_zero

		trigger = {
			is_variable_equal = {
				which = estate_greater_nobles_weight_share
				value = 0
			}
		}
	}

	text = {
		localisation_key = estate_greater_nobles_influence

		trigger = {
			check_variable = {
				which = estate_greater_nobles_weight_share
				value = 0.001
			}
		}
	}
}

defined_text = {
	name = GetEstateBurghersInfluence

	text = {
		localisation_key = estate_influence_zero

		trigger = {
			is_variable_equal = {
				which = estate_burghers_weight_share
				value = 0
			}
		}
	}

	text = {
		localisation_key = estate_city_burghers_influence

		trigger = {
			check_variable = {
				which = estate_burghers_weight_share
				value = 0.001
			}
		}
	}
}
