country_decisions = {
	# Denmark decision
	move_capital_to_copenhagen = {
		major = yes
		potential = {
			OR = {
				tag = DEN
				tag = KAL
				tag = DAN
			}
			2755 = { is_capital = yes }
			owns = 12
		}
		allow = {
			is_at_war = no
			has_regency = no
			ADM = 3
			treasury = 100
			adm_power = 50
			is_year = 1380
		}
		effect = {
			set_capital = 12
			add_treasury = -50
			add_adm_power = -50
		}
		ai_will_do = {
			factor = 1
		}
		ai_importance = 100
	}
	build_the_nyhavn = {
		major = yes
		potential = {
			OR = {
				tag = DEN
				tag = KAL
				tag = DAN
			}
			12 = {
				is_capital = yes
				NOT = {
					has_province_modifier = sjaelland_large_natural_harbour
				}
			}
			adm_tech = 14
		}
		allow = {
			adm_tech = 18
			is_at_war = no
			ADM = 3
			treasury = 600
			adm_power = 100
			12 = {
				has_harbour_infrastructure_3 = yes
			}
		}
		effect = {
			12 = {
				remove_province_modifier = sjaelland_natural_harbour
				add_permanent_province_modifier = {
					name = "sjaelland_large_natural_harbour"
					duration = -1
				}
			}
			add_treasury = -500
			add_adm_power = -50
		}
		ai_will_do = {
			factor = 1
		}
		ai_importance = 75
	}
	#SWEDEN
	prospection_blekinge = {
		major = yes
		potential = {
			owns = 18
			adm_tech = 16
		}
		allow = {
			OR = {
				adm_tech = 23
				dip_tech = 23
			}
			is_at_war = no
			ADM = 3
			treasury = 500
			adm_power = 50
			18 = {
				NOT = { has_province_modifier = blekinge_natural_harbour }
			}
		}
		effect = {
			18 = {
				add_permanent_province_modifier = {
					name = "blekinge_natural_harbour"
					duration = -1
				}
				rename_capital = Karlskrona 
			}
			add_treasury = -500
			add_adm_power = -50
		}
		ai_will_do = {
			factor = 1
		}
		ai_importance = 75
	}
}