country_decisions = {

	reclaim_land = { #MEIOU-FB large areas of the netherlands and eastern england were reclaimed from the sea
		potential = {
			any_owned_province = {
				NOT = { has_province_modifier = reclaimed_land }
				has_province_flag = reclaimable_land
			}
			adm_tech = 18
		}
		allow = {
			OR = { ADM = 3 advisor = alderman }
			adm_power = 250
		}
		effect = {
			every_owned_province = {
				limit = {
					NOT = { has_province_modifier = reclaimed_land }
					has_province_flag = reclaimable_land
				}
				add_permanent_province_modifier = {
					name = "reclaimed_land"
					duration = -1
				}
				owner = {
					add_adm_power = -50
				}
			}
		}
		ai_will_do = {
			factor = 1
			modifier = {
				factor = 0
				NOT = { years_of_income = 0.5 }
			}
		}
	}

	build_taj_mahal = {
		potential = {
			culture_group = hindusthani
			capital_scope = {
				indian_region_trigger = yes
				NOT = { has_province_modifier = taj_mahal }
			}
			adm_tech = 21
		}
		allow = {
			OR = {
				adm = 3
				advisor = artist
			}
			years_of_income = 0.5
			adm_power = 50
		}
		effect = {
			add_years_of_income = -0.5
			add_prestige = 5
			add_adm_power = -50
			capital_scope = {
				add_permanent_province_modifier = {
					name = "taj_mahal"
					duration = -1
				}
			}
		}
		ai_will_do = {
			factor = 1
			modifier = {
				factor = 0
				NOT = { years_of_income = 1.0 }
			}
		}
	}
	
}
