country_decisions = {

	primitive_transport = {
		potential = {
			OR = { 
				technology_group = mesoamerican
				technology_group = south_american
			}
			num_of_ports = 1
		}
		allow = {
			NOT = { navy_size_percentage = 0.5 } 
			treasury = 10
			any_owned_province = { 
				has_port = yes
				controlled_by = owner
				is_in_capital_area = yes
				NOT = { has_construction = navy }
				has_siege = no
				is_core = owner
			}
		}
		effect = { 
			if = {
				limit = { technology_group = mesoamerican }
				random_owned_province = {
					limit = {
						has_port = yes
						controlled_by = owner
						is_in_capital_area = yes
						NOT = { has_construction = navy }
						has_siege = no
						is_core = owner
					}
					add_unit_construction = {
						type = mesoamerican_transport_ship_chontal_longship
						amount = 1
						speed = 1
						cost = 1
					}
				}
			}
			if = {
				limit = { technology_group = south_american }
				random_owned_province = {
					limit = {
						has_port = yes
						controlled_by = owner
						is_in_capital_area = yes
						NOT = { has_construction = navy }
						has_siege = no
						is_core = owner
					}
					add_unit_construction = {
						type = south_american_transport_ship_totora
						amount = 1
						speed = 1
						cost = 1
					}
				}
			}
		}
		ai_will_do = {
			factor = 1
			modifier = {
				navy_size_percentage = 0.2
				factor = 0
			}
			modifier = {
				num_of_loans = 1
				factor = 0
			}
		}
	}

	#african_settlements = {
	#	potential = {
	#		capital_scope = {
	#			africa_continent_trigger = yes
	#		}
	#		any_owned_province = {
	#			africa_continent_trigger = yes
	#			has_empty_adjacent_province = yes
	#		}
	#	}
	#	allow = {
	#	
	#	}
	#	effect = {
	#	}
	#	ai_will_do = {
	#		factor = 0
	#	}
	#}

}
