##############################################
# Disgruntled burghers.
##############################################
burghers_rebels = {

	color = { 79 175 125 }
	area = nation_rebel_tag 		# Stays within provinces of their culture
	government = anti
	defection = none				# Does not defect
	independence = none				# Does not strive for independence
	gfx_type = culture_province	
	
	resilient = yes
	reinforcing = no
	general = yes
	smart = yes
	unit_transfer = no				# Units do not remain after enforcing demands.
	will_relocate = no
	
	artillery = 0.1
	infantry = 0.8
	cavalry = 0.1
	morale = 0.7
	
	# Possible handle actions
	handle_action_negotiate = yes
	handle_action_stability = yes
	handle_action_build_core = yes
	handle_action_send_missionary = yes		
	
	# The rebel type with the highest modifier for this province gets picked
	spawn_chance = {
		factor = 1
		modifier = {
			factor = 0.01
			is_overseas = yes
		}
		modifier = {
			factor = 0.0
			owner = {
				is_colonial_nation = yes
			}
		}
		modifier = {
			factor = 2.0
			owner = { has_wartaxes = yes }
		}
		modifier = {
			factor = 2.0
			owner = { war_exhaustion = 4 }
		}
		modifier = {
			factor = 0.5
			owner = {
				aristocracy_ideas = 4
			}
		}
		modifier = {
			factor = 0.5
			owner = {
				aristocracy_ideas = 6
			}
		}
		modifier = {
			factor = 1.8
			owner = {
				plutocracy_ideas = 3
			}
		}
		modifier = {
			factor = 1.5
			owner = {
				economic_ideas = 4
			}
		}
		modifier = {
			factor = 1.8
			owner = {
				plutocracy_ideas = 5
			}
		}
		modifier = {
			factor = 1.5
			owner = {
				plutocracy_ideas = 3
			}
		}
		modifier = {
			factor = 1.5
			owner = {
				plutocracy_ideas = 5
			}
		}
		modifier = { 
			has_province_modifier = burghers_organizing
			factor = 2
		}
	}

 	#This is checked for EACH province in the Area of Operations
	movement_evaluation = {
		factor = 1
		modifier = {
			factor = 0.1
			units_in_province = 1
		}
		modifier = {
			factor = 0.001
			controlled_by = REB
		}
		modifier = {
			factor = 1.5
			unrest = 2
		}
		modifier = {
			factor = 1.5
			unrest = 4
		}
		modifier = {
			factor = 1.5
			unrest = 6
		}
	}

 	# Province Scope
 	siege_won_trigger = {
		NOT = { local_autonomy = 50 }
	}
	siege_won_effect = {
		add_local_autonomy = 10
	}
	
	# Country scope
	can_negotiate_trigger = {
		always = yes
	}
	
	# Country scope
	can_enforce_trigger = {
		always = yes
	}
	
	# Localisation for their demands
	demands_description = "burghers_rebels_demand"
	
	# Country Scope	
	demands_enforced_effect = {
		every_owned_province = {
			limit = {
				has_rebel_faction = REB
				NOT = { province_id = 3722 }
			}
			add_permanent_province_modifier = {
				name = "city_charter"
				duration = -1
			}
		}
		every_owned_province = {
			limit = {
				has_rebel_faction = REB
				province_id = 3722
				NOT = { has_province_modifier = ditmarsian_republic }
			}
			add_permanent_province_modifier = {
				name = "ditmarsian_republic"
				duration = -1
			}
		}
		add_prestige = -25
	}
}
