# PA2 - Antipope
#2011-jun-16 FB	add DG flags (moved from event 800000)

government = papal_government government_rank = 1
mercantilism = 0.0
primary_culture = provencal
religion = catholic
technology_group = western
capital = 202	# Avignon

1000.1.1 = {
	add_country_modifier = { name = title_5 duration = -1 }
	#set_variable = { which = "centralization_decentralization" value = 4 }
	add_absolutism = -100
	add_absolutism = 10
}

1378.9.20 = {
	monarch = {
		name = "Clemens VII"
		ADM = 3
		DIP = 3
		MIL = 3
	}
}

1394.1.1 = {
	monarch = {
		name = "Benedictus XIII"
		ADM = 3
		DIP = 3
		MIL = 3
	}
}

1417.10.18 = { } #ceases to exist (see province 202)

1423.1.1 = {
	monarch = {
		name = "Clemens VIII"
		ADM = 3
		DIP = 3
		MIL = 3
	}
}

1429.1.1 = {
	monarch = {
		name = "Benedictus XIV"
		ADM = 3
		DIP = 3
		MIL = 3
	}
}
1439.1.1 = {
	monarch = {
		name = "Felix V"
		ADM = 3
		DIP = 3
		MIL = 3
	}
}
