# CEP - Corfu
# 2010-jan-04 - FB - HT3 changes

government = feudal_monarchy government_rank = 1
mercantilism = 0.0
technology_group = eastern
unit_type = western
primary_culture = lombard
add_accepted_culture = greek
religion = catholic
capital = 142

1000.1.1 = {
	add_country_modifier = { name = title_2 duration = -1 }
	#set_variable = { which = "centralization_decentralization" value = 1 }
	add_absolutism = -100
	add_absolutism = 40
	set_country_flag = crusader_kingdom
	set_country_flag = greek_crusader_state
}

1332.1.1 = {
	monarch = {
		name = "Robert"
		dynasty ="d'Anjou"
		ADM = 3
		DIP = 4
		MIL = 2
	}
}

1364.1.1 = {
	monarch = {
		name = "Philippe II"
		dynasty ="d'Anjou"
		ADM = 2
		DIP = 4
		MIL = 1
	}
}

# 1373-80 to Naples directly

1380.1.1 = {
	monarch = {
		name = "Charles"
		dynasty ="de Durazzo"
		ADM = 1
		DIP = 3
		MIL = 3
	}
}

# after 1386 to Venice, Tocco faMILy

1381.1.1 = {
	monarch = {
		name = "Carlos I"
		dynasty ="Tocco"
		ADM = 2
		DIP = 3
		MIL = 4
	}
}

1400.1.1 = {
	heir = {
		name = "Leonardo"
		monarch_name = "Leonardo II"
		dynasty = "Tocco"
		birth_date = 1400.1.1
		death_date = 1460.1.1
		claim = 95
		ADM = 2
		DIP = 1
		MIL = 1
	}
}

1429.1.1 = {
	monarch = {
		name = "Carlo II"
		dynasty = "Tocco"
		ADM = 2
		DIP = 3
		MIL = 3
	}
}

1448.1.1 = {
	monarch = {
		name = "Leonardo II"
		dynasty = "Tocco"
		ADM = 2
		DIP = 1
		MIL = 1
	}
}

1799.3.1 = {
	monarch = {
		name = "National Assembly"
		ADM = 3
		DIP = 3
		MIL = 3
	}
}
