# MIX - Mixtecs

government = tribal_monarchy government_rank = 1
mercantilism = 0.0
primary_culture = mixtec
religion = nahuatl
technology_group = mesoamerican
capital = 2645

1000.1.1 = {
	add_country_modifier = { name = title_3 duration = -1 }
	#set_variable = { which = "centralization_decentralization" value = 5 }
	add_absolutism = -100
	add_absolutism = 0
}

1356.1.1 = {
	monarch = {
		name = "Atonal"
		dynasty = "Tilantongo"
		ADM = 5
		DIP = 4
		MIL = 3
	}
}#temp pending further research

1450.1.1 = {
	monarch = {
		name = "Atonal II"
		dynasty = "Tilantongo"
		ADM = 4
		DIP = 3
		MIL = 2
	}
}
