# MKU - Kingdom of Makuria
# 2010-jan-21 - FB - HT3 changes

government = tribal_monarchy government_rank = 1
mercantilism = 10
primary_culture = nubian
religion = sunni
technology_group = soudantech
capital = 2544 # Dongola

1000.1.1 = {
	add_country_modifier = { name = title_3 duration = -1 }
	#set_variable = { which = "centralization_decentralization" value = 3 }
	add_absolutism = -100
	add_absolutism = 20
}

1323.1.1 = {
	monarch = {
		name = "Karanbas"
		dynasty = "al Maris"
		ADM = 3
		DIP = 3
		MIL = 3
	}
}



1530.1.1 = {
	religion = shiite
	monarch = {
		name = "Banu"
		dynasty = "Kanz"
		adm = 3
		dip = 4
		mil = 5		
	}
	add_country_modifier = { name = obstacle_shifting_loyalties duration = -1 }
}
