# SMT - Samtskhe

government = despotic_monarchy government_rank = 1
mercantilism = 0.0
primary_culture = georgian
add_accepted_culture = ge_armenian
add_accepted_culture = owm_armenian
religion = orthodox
technology_group = eastern
capital = 3801
historical_neutral = CIR
1000.1.1 = {
	add_country_modifier = { name = title_2 duration = -1 }
	#set_variable = { which = "centralization_decentralization" value = 3 }
	add_absolutism = -100
	add_absolutism = 20
}

1268.1.1 = {
	monarch = {
		name = "Sargis I"
		dynasty = "Jaqeli"
		ADM = 2
		DIP = 2
		MIL = 2
	}
}

1285.1.1 = {
	monarch = {
		name = "Beka I"
		dynasty = "Jaqeli"
		ADM = 2
		DIP = 2
		MIL = 2
	}
}

1306.1.1 = {
	monarch = {
		name = "Sargis II"
		dynasty = "Jaqeli"
		ADM = 2
		DIP = 2
		MIL = 2
	}
}

1518.1.1 = {
	monarch = {
		name = "Qvarqvare III"
		dynasty = "Jaqeli"
		ADM = 2
		DIP = 2
		MIL = 2
	}
	heir = {
		name = "Kaikhosro"
		monarch_name = "Kaikhosro II"
		dynasty = "Jaqeli"
		birth_date = 1517.1.1
		death_date = 1573.1.1
		claim = 95
		ADM = 3
		DIP = 3
		MIL = 3
	}
}