# TEP - Azcapotzalco

government = tribal_monarchy government_rank = 1
mercantilism = 0.0
primary_culture = tepanec
religion = nahuatl
technology_group = mesoamerican
capital = 852 # Azcapotzalco

1000.1.1 = {
	add_country_modifier = { name = title_2 duration = -1 }
	#set_variable = { which = "centralization_decentralization" value = 5 }
	add_absolutism = -100
	add_absolutism = 0
}

1337.1.1 = {
	monarch = {
		name = "Aculhuacatl"
		dynasty = "Yacateteltetl"
		ADM = 4
		DIP = 4
		MIL = 4
	}
}

1367.1.1 = {
	monarch = {
		name = "Tezozomoc"
		dynasty = "Yacateteltetl"
		ADM = 4
		DIP = 4
		MIL = 4
	}
}

1426.1.1 = {
	monarch = {
		name = "Maxtla"
		dynasty = "Yacateteltetl"
		ADM = 3
		DIP = 3
		MIL = 3
	}
}
