# XIA - Xia
# LS - Chinese Civil War

government = chinese_monarchy government_rank = 1
mercantilism = 0.0
technology_group = chinese
religion = mahayana
primary_culture = wuhan
capital = 5449

1000.1.1 = {
	add_country_modifier = { name = title_5 duration = -1 }
	#set_variable = { which = "centralization_decentralization" value = -2 }
	add_absolutism = -100
	add_absolutism = 70
}

1351.1.1 = {
	monarch = {	#Ming Yuzhen
		name = "Yuzhen"
		dynasty = "Ming"
		ADM = 6
		DIP = 4
		MIL = 6
	}
	set_country_flag = red_turban_reb
	capital = 685
	queen = {
		country_of_origin = XIA
		name = "Huanghou"
		dynasty = "Peng"
		birth_date = 1335.1.1
		death_date = 1390.1.1
		female = yes
		ADM = 3
		DIP = 3
		MIL = 3
	}
}

1352.1.1 = {
	heir = {	#Ming Sheng
		name = "Sheng"
		monarch_name = "Sheng"
		dynasty = "Ming"
		birth_date = 1352.1.1
		death_date = 1405.1.1
		claim = 95
		ADM = 5
		DIP = 4
		MIL = 3
	}
}
1366.1.1 = {
	monarch = {	#Ming Yuzhen
		name = "Sheng"
		dynasty = "Ming"
		ADM = 5
		DIP = 4
		MIL = 3
	}
	queen = {
		country_of_origin = XIA
		name = "Huanghou"
		dynasty = "Wang"
		birth_date = 1335.1.1
		death_date = 1390.1.1
		female = yes
		ADM = 3
		DIP = 3
		MIL = 3
	}
}
